{
  "strings.GenericError": "我们遇到服务器错误，请稍后再试。如果问题仍然存在，敬请发送电子邮件至 <a href='mailto:connect.support@kuka.com'>connect.support@kuka.com</a>联系客户服务部",
  "strings.HoursAbbreviation": "小时",
  "strings.MinutesAbbreviation": "分钟",
  "strings.NetworkTimeout": "您的连接已超时。请检查您的互联网连接，然后重试。如果问题仍然存在，请致电客户服务： <a href='mailto:connect.support@kuka.com'>connect.support@kuka.com</a>",
  "strings.Robot": "机器人",
  "strings.Unknown": "未知",
  "strings.commands.Copy": "克隆",
  "strings.commands.Delete": "删除",
  "strings.commands.Edit": "编辑",
  "strings.dialogs.Cancel": "取消",
  "strings.dialogs.Close": "关闭",
  "strings.dialogs.Confirm": "确认",
  "strings.dialogs.ErrorTitle": "错误",
  "strings.dialogs.Finish": "完成",
  "strings.dialogs.GenericErrorMessage": "应用变更时出现错误。请稍后再试。如果问题仍然存在，敬请发送电子邮件至 <a href='mailto:connect.support@kuka.com'>connect.support@kuka.com</a>联系客户服务部",
  "strings.dialogs.No": "否",
  "strings.dialogs.OK": "OK",
  "strings.dialogs.Save": "保存",
  "strings.dialogs.SaveAll": "保存全部",
  "strings.dialogs.Yes": "是",
  "strings.errors.input.blacklist": "该条目已存在。添加新条目。",
  "strings.errors.input.empty": "该字段不能为空。",
  "strings.errors.input.pattern": "该条目与预期模式不匹配。添加新条目。",
  "strings.errors.upgrade.applyingLicenses": "升级您的机器人时出现问题。请稍后再试。如果问题仍然存在，敬请发送电子邮件至 <a href='mailto:connect.support@kuka.com'>connect.support@kuka.com</a>联系客户服务部。",
  "strings.errors.upgrade.applyingLicensesDowngrade": "降级您的机器人时出现问题。请稍后再试。如果问题仍然存在，敬请发送电子邮件至 <a href='mailto:connect.support@kuka.com'>connect.support@kuka.com</a>联系客户服务部。",
  "strings.errors.upgrade.desktopExpected": "通过 KUKA Connect 移动体验（或非常窄的桌面电脑浏览器）无法进行机器人升级过程。请从平板电脑或桌面电脑浏览器登录，以升级您的机器人。",
  "strings.errors.upgrade.desktopExpectedDowngrade": "通过 KUKA Connect 移动体验（或非常窄的桌面电脑浏览器）无法进行机器人降级过程。请从平板电脑或桌面电脑浏览器登录，以升级您的机器人。",
  "strings.errors.upgrade.insufficientPrivilege": "您没有升级机器人的足够权限。请联系管理员解决该问题。",
  "strings.errors.upgrade.insufficientPrivilegeDowngrade": "您没有降级机器人的足够权限。请联系管理员解决该问题。",
  "strings.errors.upgrade.retrievingLicenses": "检索您的可用许可证时出现问题。请稍后再试。如果问题仍然存在，敬请发送电子邮件至 <a href='mailto:connect.support@kuka.com'>connect.support@kuka.com</a>联系客户服务部。",
  "strings.internalNotificationType.Onboard": "<b>机器人已经上线：  {param}.</b>将其分配给组并确认/编辑维护计划。",
  "strings.internalNotificationType.PredictiveMaintenance": "<b>機器人 {param} 電機溫度異常.</b>  您應該檢查這台機器人是否需要維護.",
  "strings.maintenanceType.Axis": "主轴",
  "strings.maintenanceType.Backlash": "间隙测量",
  "strings.maintenanceType.Basic": "基本检查",
  "strings.maintenanceType.BeltReplacement": "传动带更换",
  "strings.maintenanceType.DataBackup": "数据备份",
  "strings.maintenanceType.MajorElectrical": "主要电气元件",
  "strings.maintenanceType.MinorElectrical": "次要电气元件",
  "strings.maintenanceType.Unknown": "其他",
  "strings.maintenanceType.Wrist": "手腕",
  "strings.notify.guestOrg.Message": "您与任何组织均无关。您可以继续使用此应用，但您的体验会受到限制。请联系管理员解决该问题。",
  "strings.notify.guestOrg.Title": "无相关组织",
  "strings.pageTitles.Administration": "管理",
  "strings.pageTitles.AssetGroupDetails": "机器人分组详情",
  "strings.pageTitles.DeviceDetails": "机器人详情",
  "strings.pageTitles.GlobalFaults": "故障",
  "strings.pageTitles.Home": "控制面板",
  "strings.pageTitles.Login": "登录",
  "strings.pageTitles.Monitor": "云和集群监控",
  "strings.pageTitles.RoleDetails": "角色详情",
  "strings.pageTitles.Unauthorized": "未授权",
  "strings.pageTitles.UserDetails": "用户详情",
  "strings.pageTitles.UserSettings": "用户设置",
  "strings.roles.OrgAdmin": "管理员",
  "strings.roles.UberAdmin": "Uber",
  "strings.softwareFeatures.Administration": "管理",
  "strings.softwareFeatures.ConditionMonitoring": "状态监控",
  "strings.softwareFeatures.Licenses": "许可",
  "strings.softwareFeatures.Maintenance": "维护",
  "strings.softwareFeatures.Reports": "报告",
  "strings.subscriptionType.Lite": "Lite",
  "strings.subscriptionType.Plus": "Plus",
  "views.admin.AdministrationTitle": "管理设置",
  "views.admin.CreateAndEditAssetGroups": "创建并编辑机器人分组",
  "views.admin.CreateAndEditRoles": "创建并编辑角色",
  "views.admin.CreateNewUser": "添加新用户",
  "views.admin.CreateNewUserPopover.InviteUser": "邀请用户",
  "views.admin.CreateNewUserPopover.PopoverTitle": "添加新用户",
  "views.admin.CreateNewUserPopover.ViewPendingInvites": "查看待审核的邀请",
  "views.admin.NotAvailableOnMobileMessage": "通过 KUKA Connect 移动体验无法进行管理。请从平板电脑或桌面电脑浏览器登录，以管理您组织。",
  "views.admin.PendingInvitesFailedWarningMessage": "我们在检索被邀请用户时暂时存在困难。您可能见不到您已邀请，但尚未完成注册过程的用户。请稍后再试。如果问题仍然存在，敬请发送电子邮件至 <a href='mailto:connect.support@kuka.com'>connect.support@kuka.com</a>联系客户支持部",
  "views.admin.assetGroupDetails.AddNewAssetGroup": "添加新机器分组",
  "views.admin.assetGroupDetails.AssetGroupsTableTitle": "所有机器人分组",
  "views.admin.assetGroupDetails.AssetGroupsTitle": "机器人分组",
  "views.admin.assetGroupDetails.Cancel": "取消",
  "views.admin.assetGroupDetails.Save": "保存",
  "views.admin.assetGroupDetails.SearchAssetGroups": "搜索机器人分组",
  "views.admin.assetGroupDetails.assetGroupTable.AssetGroupNameTableHeader": "姓名",
  "views.admin.assetGroupDetails.assetGroupTable.AssetsTableHeader": "机器人",
  "views.admin.assetGroupDialog.CreateAssetGroupDialogTitle": "创建新机器分组",
  "views.admin.assetGroupDialog.EditAssetGroupDialogTitle": "编辑机器人分组",
  "views.admin.assetGroupDialog.GroupNameLabel": "分组名称",
  "views.admin.assetGroupDialog.SelectAll": "选择全部",
  "views.admin.assetGroupDialog.SerialNumberPrefix": "系列",
  "views.admin.assetGroupErrorDialog.ErrorDialogTitle": "保存机器人分组时出错",
  "views.admin.externalNotificationSettingsErrorDialog.ErrorDialogTitle": "保存外部通知设置时出现错误",
  "views.admin.inviteResultsDialog.BatchInvitesFailedMessage": "在发送这些邀请时出现错误。请再试一次，或者直接联系这些用户。",
  "views.admin.inviteResultsDialog.BatchInvitesSucceededMessage": "{invitationCount, plural, one{以下这位用户已被邀请到您的组织:} other {下列这些用户已被邀请到您的组织:}}",
  "views.admin.inviteResultsDialog.BatchInvitesSucceededMessageSuffix": "{invitationCount, plural, one{已向此用户发送电子邮件:} other {已向这些用户发送电子邮件:}}",
  "views.admin.inviteResultsDialog.InvitesFailed": "邀请错误",
  "views.admin.inviteResultsDialog.InvitesSucceeded": "成功发送 {invitationCount, plural, one{邀请} other {邀请}}",
  "views.admin.inviteUserDialog.AddRoles": "点击以添加角色......",
  "views.admin.inviteUserDialog.AddSites": "点击以添加机器人分组......",
  "views.admin.inviteUserDialog.ConfirmInviteButton": "添加邀请",
  "views.admin.inviteUserDialog.EmailLabel": "电子邮件",
  "views.admin.inviteUserDialog.ErrorTitle": "邀请用户时出错",
  "views.admin.inviteUserDialog.InviteUserDialogTitle": "邀请用户",
  "views.admin.inviteUserDialog.SendAllInvitations": "发送邀请",
  "views.admin.inviteUserDialog.pendingInvitesTable.AssetGroupsTableHeader": "机器人分组",
  "views.admin.inviteUserDialog.pendingInvitesTable.EmailTableHeader": "电子邮件",
  "views.admin.inviteUserDialog.pendingInvitesTable.RolesTableHeader": "角色",
  "views.admin.pendingInvitesDialog.ConfirmResendMessage": "您确定要重新发送对 {param} 的邀请？",
  "views.admin.pendingInvitesDialog.ConfirmResendTitle": "重新发送邀请？",
  "views.admin.pendingInvitesDialog.ErrorMessage": "无法从组织中取消对 {param} 的邀请。请稍后再试。如果问题仍然存在，请联系客户支持部。",
  "views.admin.pendingInvitesDialog.ErrorTitle": "取消邀请用户时出错",
  "views.admin.pendingInvitesDialog.ReinviteNoEmailMessage": "无法生成电子邮件，请直接联系 {param}。",
  "views.admin.pendingInvitesDialog.ReinviteNoEmailTitle": "重新邀请用户时出错",
  "views.admin.roleDetails.AddNewRole": "添加新角色",
  "views.admin.roleDetails.Cancel": "取消",
  "views.admin.roleDetails.RolesTableTitle": "所有角色",
  "views.admin.roleDetails.RolesTitle": "角色",
  "views.admin.roleDetails.Save": "保存",
  "views.admin.roleDetails.SearchRoles": "搜索角色",
  "views.admin.roleDetails.rolesTable.FeaturesTableHeader": "软件特点",
  "views.admin.roleDetails.rolesTable.RoleNameTableHeader": "姓名",
  "views.admin.roleDetails.rolesTable.SoftwareFeaturesAll": "所有特点",
  "views.admin.roleDetails.rolesTable.SoftwareFeaturesNone": "没有",
  "views.admin.roleDetails.rolesTable.UsersTableHeader": "用户",
  "views.admin.roleDetailsErrorDialog.ErrorDialogTitle": "保存角色时出错",
  "views.admin.roleDialog.CreateNewRoleTitle": "创建新角色",
  "views.admin.roleDialog.EditRoleTitle": "编辑角色",
  "views.admin.roleDialog.ExistingRoleLabel": "现有角色",
  "views.admin.roleDialog.IncludedSoftwareFeatures": "包含的软件特点",
  "views.admin.roleDialog.RoleNamePlaceholderText": "新角色名称",
  "views.admin.roleDialog.SelectRolePlaceholder": "选择角色",
  "views.admin.roleDialog.SelectRoleTitle": "选择角色",
  "views.admin.roleDialog.SelectSoftwareFeaturesTitle": "选择软件特点",
  "views.admin.saveErrorDialog.GenericErrorMessage": "应用变更时出现错误：{errorMessage}.请稍后再试。如果问题仍然存在，敬请发送电子邮件至 <a href='mailto:connect.support@kuka.com'>connect.support@kuka.com</a>联系客户支持部",
  "views.admin.selectAssetGroupDialog.Groups": " 分组",
  "views.admin.selectAssetGroupDialog.SelectAssetGroupDialogTitle": "选择机器人分组",
  "views.admin.selectRolesDialog.Roles": " 角色",
  "views.admin.selectRolesDialog.SelectRolesDialogTitle": "选择角色",
  "views.admin.userDetails.AssetGroups.AddAssetGroupButtonLabel": "选择机器人分组",
  "views.admin.userDetails.AssetGroupsTableTitle": "机器人分组访问",
  "views.admin.userDetails.BasicInfo": "基本信息",
  "views.admin.userDetails.Cancel": "取消",
  "views.admin.userDetails.EmailLabel": "电子邮件",
  "views.admin.userDetails.FirstNameLabel": "名",
  "views.admin.userDetails.NoGroupsDialogMessage": "目前没有与该用户关联的机器人分组。您可以点击主管理屏幕上的 Create and Edit Robot Groups（创建和编辑机器分组）来创建组。",
  "views.admin.userDetails.NoGroupsDialogTitle": "无分组",
  "views.admin.userDetails.Roles.AddRoleButtonLabel": "选择角色",
  "views.admin.userDetails.RolesTableTitle": "角色",
  "views.admin.userDetails.SaveAll": "保存全部",
  "views.admin.userDetails.SurnameLabel": "姓",
  "views.admin.userDetails.UserNameLabel": "用户 ID",
  "views.admin.userDetails.assetGroupTable.AssetGroupTableHeader": "机器人分组",
  "views.admin.userDetails.rolesTable.FeaturesTableHeader": "产品特点",
  "views.admin.userDetails.rolesTable.RoleTableHeader": "角色",
  "views.admin.userDetailsErrorDialog.ErrorDialogTitle": "保存用户信息时出错",
  "views.admin.users.UsersTitle": "所有用户",
  "views.admin.users.removeUserConfirmationDialog.DialogMessage": "要从该组织移除 {param} 吗？",
  "views.admin.users.removeUserConfirmationDialog.DialogTitle": "移除用户",
  "views.admin.users.revokeInviteConfirmationDialog.DialogMessage": "撤销对 {param} 的邀请?",
  "views.admin.users.revokeInviteConfirmationDialog.DialogTitle": "撤销邀请",
  "views.admin.users.userTable.NoAssociatedRoles": "没有",
  "views.admin.users.userTable.RemoveUserTooltipText": "将用户从您的组织移除",
  "views.admin.users.userTable.ResendInvitationTooltipText": "重新发送邀请",
  "views.admin.users.userTable.RevokeUserInviteTooltipText": "撤销邀请",
  "views.admin.users.userTable.SearchUsers": "搜索用户",
  "views.admin.users.userTable.UserAssetGroupsTableHeader": "机器人分组",
  "views.admin.users.userTable.UserGroupsInterpolation": "{groupCount, plural, =0{无} one{1 个分组} other{# 个分组}}",
  "views.admin.users.userTable.UserNameTableHeader": "姓名",
  "views.admin.users.userTable.UserRolesInterpolation": "{roleCount, plural, =0{} one{& 1 其他} other{& # 其他}}",
  "views.admin.users.userTable.UserRolesTableHeader": "角色",
  "views.admin.users.userTable.UserStatusActive": "活动",
  "views.admin.users.userTable.UserStatusPending": "待审核",
  "views.admin.users.userTable.UserStatusTableHeader": "状态",
  "views.asset.faultBanner.Download": "下载",
  "views.asset.faultBanner.Help": "帮助",
  "views.asset.faultBanner.NoTroubleshootingInfo": "无需额外详情",
  "views.asset.faultBanner.PossibleCauses": "可能的原因：",
  "views.asset.faultBanner.Title": "故障",
  "views.asset.faultBanner.UnknownStateWarning": "无法就活动故障询问设备。",
  "views.asset.faultBanner.ViewAlertInEventLog": "查看事件日志中的警报",
  "views.asset.faultBanner.ViewProductManual": "查看产品手册",
  "views.asset.status.CannotDisplay3dModel": "您的浏览器无法显示 4D 模型。",
  "views.asset.status.CannotDisplayImagesWarning": "目前无可用图像显示。",
  "views.asset.status.Condition": "状态",
  "views.asset.status.ControllerDetails": "控制器详情",
  "views.asset.status.ControllerOSVersion": "控制器固件",
  "views.asset.status.ControllerSerialNumber": "序列号",
  "views.asset.status.ControllerType": "类型",
  "views.asset.status.Download": "下载产品手册",
  "views.asset.status.NoDeviceModelInformationError": "不了解该机器人型号的相关信息。如果问题仍然存在，请发送电子邮件至 <a href='mailto:connect.support@kuka.com'>connect.support@kuka.com</a>联系客户支持部。",
  "views.asset.status.NoOperationalDataWarning": "目前无操作数据显示。",
  "views.asset.status.RobotDetails": "机器人详情",
  "views.asset.status.RobotSerialNumber": "序列号",
  "views.asset.status.RobotType": "类型",
  "views.asset.status.Status": "工作模式",
  "views.asset.status.SubscriptionTypeCaption": "订阅类型",
  "views.asset.status.UpgradeMessage": "升级到 <b>KUKA Connect PLUS</b>，了解我们的实时 4D 模型。",
  "views.asset.status.UpgradeToPlus": "升级到 <b>PLUS</b>",
  "views.asset.status.ViewProductManual": "查看产品手册",
  "views.asset.timeline.Current": "当前",
  "views.asset.timeline.EventLog": "事件日志",
  "views.asset.timeline.FaultSeries": "故障",
  "views.asset.timeline.FilterEvents.All": "所有事件",
  "views.asset.timeline.FilterEvents.Faults": "故障",
  "views.asset.timeline.FilterEvents.Header": "过滤事件：",
  "views.asset.timeline.FilterEvents.Maintenance": "维护",
  "views.asset.timeline.HistoricalQueryFailed": "无法检索历史故障。请稍后再试。如果问题仍然存在，请发送电子邮件至 <a href='mailto:connect.support@kuka.com'>connect.support@kuka.com</a>联系客户支持部。",
  "views.asset.timeline.MaintenanceQueryFailed": "无法检索维护里程碑。请稍后再试。如果问题仍然存在，请发送电子邮件至 <a href='mailto:connect.support@kuka.com'>connect.support@kuka.com</a>联系客户支持部。",
  "views.asset.timeline.MaintenanceSeries": "维护",
  "views.asset.timeline.Navigation": "导航：",
  "views.asset.timeline.ProductivityInsights": "状态监控",
  "views.asset.timeline.RobotTimeline": "时间线",
  "views.asset.timeline.SearchEventLog": "搜索事件日志",
  "views.asset.timeline.TimeRange": "时间范围：",
  "views.asset.timeline.TimeRangeDays": "{days, plural, one{# 天} other{# 天}}",
  "views.asset.timeline.TimeRangeHours": "{hours, plural, one{# 小时} other{# 小时}}",
  "views.asset.timeline.TimeRangeMonths": "{months, plural, one{# 月} other{# 月}}",
  "views.asset.timeline.TimeRangeWeeks": "{weeks, plural, one{# 周} other{# 周}}",
  "views.asset.timeline.timeRangeInformation": "时间范围功能会更改此卡上所有项目的时间窗口。",
  "views.assetDetails.status.Condition": "条件",
  "views.assetDetails.status.ViewProductManual": "查看产品手册",
  "views.common.directives.dateRangePicker.ApplyLabel": "应用",
  "views.common.directives.dateRangePicker.CancelLabel": "取消",
  "views.common.directives.dateRangePicker.CustomRange": "自定义范围",
  "views.common.directives.dateRangePicker.DayLabel": "一天",
  "views.common.directives.dateRangePicker.EndLabel": "结束",
  "views.common.directives.dateRangePicker.Last30Days": "最近 30 天",
  "views.common.directives.dateRangePicker.LastYear": "去年",
  "views.common.directives.dateRangePicker.MonthLabel": "个月",
  "views.common.directives.dateRangePicker.StartLabel": "开始",
  "views.common.directives.dateRangePicker.YearLabel": "一年",
  "views.common.directives.robotSelector.RobotSelectorCaption": "选择机器人",
  "views.common.directives.robotSelector.ViewAllRobots": "查看全部",
  "views.common.directives.robotSelector.ViewByFogNode": "按 fogNode 查看",
  "views.common.directives.robotSelector.ViewByGroups": "按组查看",
  "views.common.upgradeRobot.redirectToStoreDialog.RedirectMessage": "该对话框关闭时，您将被重定向到我们的商店购买许可证。",
  "views.common.upgradeRobot.redirectToStoreDialog.RedirectTitle": "即将重定向",
  "views.common.upgradeRobot.upgradeConfirmationDialog.AssetActionTableHeader": "删除",
  "views.common.upgradeRobot.upgradeConfirmationDialog.AssetIdTableHeader": "序列号",
  "views.common.upgradeRobot.upgradeConfirmationDialog.AssetNameTableHeader": "机器人名称",
  "views.common.upgradeRobot.upgradeConfirmationDialog.AssetTypeTableHeader": "类型",
  "views.common.upgradeRobot.upgradeConfirmationDialog.CancelButton": "取消升级",
  "views.common.upgradeRobot.upgradeConfirmationDialog.CancelDowngradeButton": "取消降级",
  "views.common.upgradeRobot.upgradeConfirmationDialog.ConfirmButton": "确认升级",
  "views.common.upgradeRobot.upgradeConfirmationDialog.ConfirmDowngradeButton": "确认降级",
  "views.common.upgradeRobot.upgradeConfirmationDialog.DowngradeTitle": "请确认列出进行降级的机器人。",
  "views.common.upgradeRobot.upgradeConfirmationDialog.SerialNumberPrefix": "系列",
  "views.common.upgradeRobot.upgradeConfirmationDialog.Title": "请确认列出进行升级的机器人",
  "views.common.upgradeRobot.upgradeDialog.AvailableLicensesMessage": "{licenseCount, plural, =0{您没有可用的升级许可证。} one{您有 1 个可用的升级许可证。} other{您有 # 个可用的升级许可证。}}",
  "views.common.upgradeRobot.upgradeDialog.DowngradeButton": "降级选定的机器人",
  "views.common.upgradeRobot.upgradeDialog.PurchaseMessage": "如果您想购买更多许可证，请点击此处。",
  "views.common.upgradeRobot.upgradeDialog.RobotSelectorCaption": "选择机器人",
  "views.common.upgradeRobot.upgradeDialog.RobotsSelectedMessage": "{robotsSelected, plural, =0{未选定机器人} one{1 个选定的机器人} other{# 个选定的机器人}}",
  "views.common.upgradeRobot.upgradeDialog.SelectAll": "选择全部",
  "views.common.upgradeRobot.upgradeDialog.SelectRobotsDowngradeMessage": "选择您想降级的机器人。",
  "views.common.upgradeRobot.upgradeDialog.SelectRobotsMessage": "选择您想升级的机器人。",
  "views.common.upgradeRobot.upgradeDialog.SerialNumberPrefix": "系列",
  "views.common.upgradeRobot.upgradeDialog.Title": "运用许可证",
  "views.common.upgradeRobot.upgradeDialog.UberSwitchButton": "Uber: 切换模式",
  "views.common.upgradeRobot.upgradeDialog.UpgradeButton": "升级选定的机器人",
  "views.common.upgradeRobot.upgradeDialog.ViewAllRobots": "查看全部",
  "views.common.upgradeRobot.upgradePickerDialog.CancelButton": "取消升级",
  "views.common.upgradeRobot.upgradePickerDialog.Message": "您已选择将 {robotName} 升级到 <b>KUKA Connect Plus</b>。请确认您的订阅。",
  "views.common.upgradeRobot.upgradePickerDialog.RobotType": "机器人类型",
  "views.common.upgradeRobot.upgradePickerDialog.SerialNumber": "序列号",
  "views.common.upgradeRobot.upgradePickerDialog.UpgradeAdditionalButton": "升级其他机器人",
  "views.common.upgradeRobot.upgradePickerDialog.UpgradeThisButton": "将该机器人升级到 PLUS",
  "views.common.upgradeRobot.upgradeResultsDialog.FailureDowngradeMessage": "啊呀！只有 {successCount}/{totalCount} 个机器人成功降级。请联系管理员帮助解决该问题。",
  "views.common.upgradeRobot.upgradeResultsDialog.FailureDowngradeTitle": "降级出错",
  "views.common.upgradeRobot.upgradeResultsDialog.FailureMessage": "啊呀！只有 {successCount}/{totalCount} 个机器人成功升级。请联系管理员帮助解决该问题。",
  "views.common.upgradeRobot.upgradeResultsDialog.FailureSingleDowngradeMessage": "啊呀！您的机器人未成功降级。请联系管理员帮助解决该问题。",
  "views.common.upgradeRobot.upgradeResultsDialog.FailureSingleMessage": "啊呀！您的机器人未成功升级。请联系管理员帮助解决该问题。",
  "views.common.upgradeRobot.upgradeResultsDialog.FailureTitle": "升级出错",
  "views.common.upgradeRobot.upgradeResultsDialog.RebootPendingMessage": "该对话框关闭以反映您的修改内容时，网站将刷新。",
  "views.common.upgradeRobot.upgradeResultsDialog.SuccessfulDowngradeMessage": "祝贺！{successCount}/{totalCount} 个机器人已成功降级。",
  "views.common.upgradeRobot.upgradeResultsDialog.SuccessfulDowngradeTitle": "降级成功",
  "views.common.upgradeRobot.upgradeResultsDialog.SuccessfulMessage": "祝贺！{successCount}/{totalCount} 个机器人已成功升级。",
  "views.common.upgradeRobot.upgradeResultsDialog.SuccessfulSingleDowngradeMessage": "祝贺！您的机器人已成功降级。",
  "views.common.upgradeRobot.upgradeResultsDialog.SuccessfulSingleMessage": "祝贺！您的机器人已成功升级。",
  "views.common.upgradeRobot.upgradeResultsDialog.SuccessfulTitle": "升级成功",
  "views.faultLog.FaultLogTabTitle": "故障日志",
  "views.faultLog.NoEventsMessage": "未发生事件",
  "views.faultLog.UpgradeToPlus": "升级到 <b>KUKA Connect PLUS</b> 以查看机器人的事件。",
  "views.faultLog.faultTable.ActionHeader": "操作",
  "views.faultLog.faultTable.ClearedFaultTooltip": "已清除",
  "views.faultLog.faultTable.DetailsHeader": "详细信息",
  "views.faultLog.faultTable.DurationTableHeader": "持续时间",
  "views.faultLog.faultTable.FaultDescriptionTableHeader": "消息",
  "views.faultLog.faultTable.FaultTooltip": "故障",
  "views.faultLog.faultTable.InFaultTooltip": "活动",
  "views.faultLog.faultTable.MaintenanceTooltip": "维护",
  "views.faultLog.faultTable.ProjectTableHeader": "项目",
  "views.faultLog.faultTable.SerialNumberTableHeader": "机器人序列号",
  "views.faultLog.faultTable.StatusTableHeader": "状态",
  "views.faultLog.faultTable.TimeTableHeader": "日期/时间",
  "views.faultLog.faultTable.TypeTableHeader": "类型",
  "views.globalFaults.GlobalFaultsTitle": "故障日志",
  "views.globalFaults.SearchAllFaultsPlaceholder": "搜索故障日志",
  "views.globalFaults.tile.UpgradeMessage": "升级到 <b>KUKA Connect PLUS</b>，了解我们的实时故障日志特点。",
  "views.header.breadcrumbs.AllRobots": "所有机器人分组",
  "views.header.breadcrumbs.Dashboard": "控制面板",
  "views.home.assetTable.AssetIdTableHeader": "机器人识别",
  "views.home.assetTable.AssetNameTableHeader": "机器人名称",
  "views.home.assetTable.AssetTypeTableHeader": "机器人类型",
  "views.kpis.graphs.historical.AboveAverageTemperature": "电机温度高于平均水平，这可能表明维护是必要的以避免故障",
  "views.kpis.graphs.historical.AveMotorCurrentLabel": "电机电流",
  "views.kpis.graphs.historical.AveMotorForceLabel": "电机的力",
  "views.kpis.graphs.historical.AveMotorTemperatureLabel": "电机温度",
  "views.kpis.graphs.historical.AveMotorTemperatureTitle": "电机温度",
  "views.kpis.graphs.historical.Axis": "Axis {axis}",
  "views.kpis.graphs.historical.AxisLabel": "按 Axis 查看： ",
  "views.kpis.graphs.historical.BelowAverageTemperature": "电机温度低于平均水平，这可能表明维护是必要的以避免故障",
  "views.kpis.graphs.historical.EnergyLabel": "能耗",
  "views.kpis.graphs.historical.EnergyTitle": "能耗",
  "views.kpis.graphs.historical.ForceTitle": "电机力 （矩）",
  "views.kpis.graphs.historical.MaxMotorCurrentLabel": "最大的电机电流",
  "views.kpis.graphs.historical.MaxMotorTemperatureLabel": "最高电机温度",
  "views.kpis.graphs.historical.Maximum": "最大值",
  "views.kpis.graphs.historical.Mean": "意思是",
  "views.kpis.graphs.historical.Median": "中位数",
  "views.kpis.graphs.historical.MinMotorCurrentLabel": "最小的电机电流",
  "views.kpis.graphs.historical.MinMotorTemperatureLabel": "最低电机温度",
  "views.kpis.graphs.historical.Minimum": "最低",
  "views.kpis.graphs.historical.MotorCurrentLabel": "电机电流",
  "views.kpis.graphs.historical.MotorCurrentTitle": "电机电流",
  "views.kpis.graphs.historical.MotorTemperatureTitle": "电机温度",
  "views.kpis.graphs.historical.StandardDeviation": "标准偏差",
  "views.kpis.kpiNames.Connectivity": "连接性",
  "views.kpis.kpiNames.EnergyConsumption": "平均能耗",
  "views.kpis.units.Ampere": "A",
  "views.kpis.units.Celsius": "°C",
  "views.kpis.units.KW": "kW",
  "views.kpis.units.NewtonMeter": "Nm",
  "views.login.LoginButton": "以 KUKA 登录",
  "views.maintenance.All": "所有",
  "views.maintenance.Completed": "已完成",
  "views.maintenance.Filter": "筛选器视图：",
  "views.maintenance.MaintenanceEventTable.DateTimeHeader": "日期",
  "views.maintenance.MaintenanceEventTable.DetailsHeader": "详细信息",
  "views.maintenance.MaintenanceEventTable.RobotHeader": "机器人",
  "views.maintenance.MaintenanceEventTable.StatusHeader": "状态",
  "views.maintenance.Overdue": "过期维护",
  "views.maintenance.Predicted": "预期维护",
  "views.maintenance.Today": "目前",
  "views.maintenance.Upcoming": "即将进行的维护",
  "views.maintenance.details.CompletedBy": "完成者",
  "views.maintenance.details.CompletedDate": "完成日期",
  "views.maintenance.details.CompletedRobRun": "完成的 RobRun",
  "views.maintenance.details.CurrentRobRun": "RobRun",
  "views.maintenance.details.ErrorSavingMessage": "保存维护里程碑时出错。请重试。如果问题仍然存在，请发送电子邮件至 <a href='mailto:connect.support@kuka.com'>connect.support@kuka.com</a>联系客户支持部。",
  "views.maintenance.details.ErrorSavingTitle": "保存维护里程碑时出错",
  "views.maintenance.details.FirstConnected": "Connected-On",
  "views.maintenance.details.LastCompleted": "最近一次完成日期",
  "views.maintenance.details.LastCompletedPlaceholder": "未输入",
  "views.maintenance.details.MaintenanceCompleteLabel": "维护完成",
  "views.maintenance.details.MaintenanceDetailsHeader": "维修细节",
  "views.maintenance.details.MaintenanceStatus": "维护状态",
  "views.maintenance.details.MaintenanceType": "维护类型",
  "views.maintenance.details.Notes": "注释",
  "views.maintenance.details.NotesPlaceholder": "请在此处键入注释。",
  "views.maintenance.details.OverridePrediction": "重新预测",
  "views.maintenance.details.PostNote": "发布",
  "views.maintenance.details.PredictedDate": "预测维护日期",
  "views.maintenance.details.PredictedDatePlaceholder": "保存以重新计算",
  "views.maintenance.details.RobotDetailsHeader": "机器人的详细信息",
  "views.maintenance.details.ScheduledDate": "计划维护日期",
  "views.maintenance.details.SerialNumber": "序列号",
  "views.maintenance.details.UserUnknown": "未知",
  "views.maintenance.details.resultsDialog.EventCompleted": "里程碑在{completedDate}上标记为完整",
  "views.maintenance.details.resultsDialog.EventCompletedFailed": "里程碑无法标记为完整。 请稍后再试。",
  "views.maintenance.details.resultsDialog.LastCompletedDateSet": "最后完成的日期设置为{lastCompletedDate}",
  "views.maintenance.details.resultsDialog.LastCompletedDateSetFailed": "最后完成的日期无法设置。 请稍后再试。",
  "views.maintenance.details.resultsDialog.NotesAdded": "添加了{num}个注释",
  "views.maintenance.details.resultsDialog.NotesFailed": "无法追加{num}个音符. 请稍后再试。",
  "views.maintenance.details.resultsDialog.PredictedDateOverridden": "里程碑计划在{scheduledDate}",
  "views.maintenance.details.resultsDialog.PredictedDateOverrideFailed": "无法安排这个里程碑。 请稍后再试。",
  "views.maintenance.details.resultsDialog.SetToPredict": "KUKA Connect现在将自动安排这一里程碑",
  "views.maintenance.details.resultsDialog.SetToPredictFailed": "无法自动安排此里程碑。 请稍后再试",
  "views.maintenance.details.resultsDialog.Title": "维护里程碑修改",
  "views.maintenance.mobile.navigation.SwipeToNavigate": "（打开日历以更改月份）",
  "views.maintenance.tile.Completed": "已完成的维护（最近 30 天）",
  "views.maintenance.tile.Overdue": "过期维护",
  "views.maintenance.tile.Title": "维护",
  "views.maintenance.tile.Upcoming": "即将进行的维护（接下来 30 天）",
  "views.monitor.NotAvailableOnMobileMessage": "通过 KUKA Connect 移动体验无法获得云监控。请从平板电脑或桌面电脑浏览器登录查看您的云健康状况。",
  "views.monitor.deployNsmDialog.DeployFailureMessage": "NSM 实例存在问题。",
  "views.monitor.deployNsmDialog.DialogTitle": "NSM 实例",
  "views.monitor.deployNsmDialog.DuplicateError": "您已经有一个带该主机和端口及用户名称的 NSM 实例。",
  "views.monitor.deployNsmDialog.HostAndPortLabel": "主机和端口",
  "views.monitor.deployNsmDialog.HostAndPortPlaceholder": "Ex: nsm01.nebbiolo.io:8082",
  "views.monitor.deployNsmDialog.PasswordLabel": "密码",
  "views.monitor.deployNsmDialog.UserNameLabel": "用户名称",
  "views.monitor.deployNsmDialog.UserNamePlaceholder": "Ex: admin",
  "views.monitor.latestUpdates.LatestUpdatesTitle": "从 Nsm 的最新更新",
  "views.monitor.latestUpdates.latestUpdatesTable.EntityIdTableHeader": "实体 ID",
  "views.monitor.latestUpdates.latestUpdatesTable.SerialNumberTableHeader": "序列号",
  "views.monitor.latestUpdates.latestUpdatesTable.TimeTableHeader": "时间",
  "views.monitor.nsmDetails.ConfirmDeletion": "您确定想从该组织中删除{param}吗？",
  "views.monitor.nsmDetails.DeployButtonLabel": "部署 NSM...",
  "views.monitor.nsmDetails.NoNsmDeployed": "无 NSM 部署",
  "views.monitor.nsmDetails.NsmDetailsTitle": "Nebbiolo 系统管理器实例",
  "views.monitor.nsmDetails.nsmInstancesTable.ConnectedDevicesHeader": "连接的设备",
  "views.monitor.nsmDetails.nsmInstancesTable.HostTableHeader": "主机",
  "views.monitor.nsmDetails.nsmInstancesTable.StatusHeader": "当状状态",
  "views.monitor.runningServices.ServicesTableTitlePrefix": "服务继续运行",
  "views.monitor.runningServices.servicesTable.NumReplicasTableHeader": "# 复制品",
  "views.monitor.runningServices.servicesTable.ServiceNameTableHeader": "服务名称",
  "views.monitor.runningServices.servicesTable.ServiceVersionTableHeader": "服务版本",
  "views.navbar.FaultsBrokenErrorTooltip": "无法显示活动故障。请稍后再试。如果问题仍然存在，请联系客户服务部。",
  "views.navbar.MenuTitle": "菜单",
  "views.navbar.NewFaultsButton": "当前故障",
  "views.navbar.Notifications.DismissAll": "关闭所有条目",
  "views.navbar.Notifications.MarkAllRead": "将所有条目标记为已读",
  "views.navbar.Notifications.NoNotifications": "没有新通知！",
  "views.navbar.Notifications.Title": "通知",
  "views.navbar.NotificationsBrokenErrorTooltip": "无法显示动态通知。请稍后再试。如果问题仍然存在，请联系客户服务部。",
  "views.navbar.NotificationsButton": "通知",
  "views.navbar.SearchAllPlaceholder": "搜索全部",
  "views.navbar.menu.Administration": "管理",
  "views.navbar.menu.FAQ": "常问问题",
  "views.navbar.menu.GettingStarted": "入门",
  "views.navbar.menu.Logout": "退出",
  "views.navbar.menu.Monitor": "监控",
  "views.navbar.menu.Settings": "用户设置",
  "views.onboarding.banner.Message": "将该机器人分配至组并确认维护计划，使其就位。",
  "views.onboarding.banner.OnboardButton": "使机器人就位",
  "views.onboarding.banner.Title": "该机器人最近上过线。",
  "views.onboarding.wizard.AssignToGroups": "分配给组",
  "views.onboarding.wizard.ConnectRobot": "连接机器人",
  "views.onboarding.wizard.Continue": "继续",
  "views.onboarding.wizard.ErrorSavingMessage": "使机器人就位时出错。请重试。如果问题仍然存在，请发送电子邮件至 <a href='mailto:connect.support@kuka.com'>connect.support@kuka.com</a>联系客户支持部。",
  "views.onboarding.wizard.ErrorSavingTitle": "保存就位数据时出错",
  "views.onboarding.wizard.RobotGroupsCaption": "把您的机器人分配至组。",
  "views.onboarding.wizard.ScheduleMaintenance": "安排维护",
  "views.onboarding.wizard.ScheduleMaintenanceCaption": "输入 <b>最近一次完成维护的日期，</b>以便进行最精确的调度。随着收集的机器人数据增加，可以调整维护安排。",
  "views.onboarding.wizard.ScheduledMaintenanceError": "没有针对该机器人的预测维护",
  "views.onboarding.wizard.SkipStep": "跳过此步骤",
  "views.onboarding.wizard.Title": "机器人入职",
  "views.onboarding.wizard.maintenanceTable.DateHeader": "添加最近一次维护",
  "views.onboarding.wizard.maintenanceTable.DescriptionTableHeader": "维护说明",
  "views.onboarding.wizard.maintenanceTable.EnterDate": "选择日期",
  "views.onboarding.wizard.robotGroupTable.RobotGroupTableHeader": "机器人分组",
  "views.predictiveMaintenance.banner.Button": "视图状态监测",
  "views.predictiveMaintenance.banner.Message": "这种机器人，这可能表明维护是必要的以避免故障检测到正常范围以外的值。",
  "views.predictiveMaintenance.banner.Title": "这种机器人有异常的电机温度在过去的一个小时。",
  "views.productivityInsights.Avg": "平均值",
  "views.productivityInsights.EmptyAvailabilityKpiWarning": "无连接性信息可用。",
  "views.productivityInsights.EmptyKpisWarning": "无可用信息显示。",
  "views.productivityInsights.EmptyMotionKpiWarning": "无动作时间信息可用。",
  "views.productivityInsights.HistoricalFailed": "在检索您的历史数据时我们遇到服务器错误，请稍后再试。如果问题仍然存在，敬请发送电子邮件至 <a href='mailto:connect.support@kuka.com'>connect.support@kuka.com</a>联系客户服务部",
  "views.productivityInsights.Max": "最大值",
  "views.productivityInsights.Min": "最小值",
  "views.productivityInsights.NoAvailableData": "为所选的图表类型和时间段内没有数据是可用的。",
  "views.productivityInsights.OutOfRangeWarning": "时间线被推进至未来太远。在时间线的导航区中按下 <b>当前</b>。",
  "views.productivityInsights.RotateDeviceMessage": "转动设备以获取更多数据图形",
  "views.productivityInsights.ScalarFailed": "在检索您的标量数据时我们遇到服务器错误，请稍后再试。如果问题仍然存在，敬请发送电子邮件至 <a href='mailto:connect.support@kuka.com'>connect.support@kuka.com</a>联系客户服务部",
  "views.productivityInsights.TimeRange": "时间范围：",
  "views.productivityInsights.Title": "状态监控",
  "views.productivityInsights.secondaryKpis.AggregateKpis": "总体 KPI",
  "views.productivityInsights.secondaryKpis.Autonomous": "自动模式",
  "views.productivityInsights.secondaryKpis.Availability": "{connectivityValue} 连接性",
  "views.productivityInsights.secondaryKpis.External": "外部控制模式",
  "views.productivityInsights.secondaryKpis.Information": "KUKA Connect接收机器人数据的时间百分比。",
  "views.productivityInsights.secondaryKpis.Motion": "{timeInMotionValue} 动作时间",
  "views.productivityInsights.secondaryKpis.MotionInformationPlural": "机器人运动时间的百分比。",
  "views.productivityInsights.secondaryKpis.MotionInformationSingular": "机器人运动时间的百分比。",
  "views.productivityInsights.secondaryKpis.OperatingMode": "工作模式持续时间",
  "views.productivityInsights.secondaryKpis.RobotKpis": "机器人 KPI",
  "views.productivityInsights.secondaryKpis.Testing1": "测试模式 1",
  "views.productivityInsights.secondaryKpis.Testing2": "测试模式 2",
  "views.productivityInsights.secondaryKpis.UptimeCounter": "正常运行时间计数器",
  "views.productivityInsights.secondaryKpis.boardTester.CycleTime": "周期时间",
  "views.productivityInsights.secondaryKpis.boardTester.HandledBoards": "处理的板",
  "views.productivityInsights.secondaryKpis.boardTester.NumPaidUses": "有偿使用次数",
  "views.productivityInsights.secondaryKpis.boardTester.RetestedBoards": "扭曲的板",
  "views.productivityInsights.secondaryKpis.boardTester.Title": "生产",
  "views.productivityInsights.secondaryKpis.r2.fasten.Angle": "最大角度",
  "views.productivityInsights.secondaryKpis.r2.fasten.FastenerTotals": "紧固件总计",
  "views.productivityInsights.secondaryKpis.r2.fasten.MaxTorque": "最大值达到扭矩 [Nm]",
  "views.productivityInsights.secondaryKpis.r2.fasten.NokCaption": "不成功",
  "views.productivityInsights.secondaryKpis.r2.fasten.OkCaption": "成功",
  "views.productivityInsights.secondaryKpis.r2.fasten.ScrewTotals": "螺钉",
  "views.productivityInsights.secondaryKpis.r2.fasten.Title": "r2_fasten 度量",
  "views.productivityInsights.secondaryKpis.r2.fasten.Torque": "最大扭矩",
  "views.productivityInsights.secondaryKpis.uptime.Days": "天",
  "views.productivityInsights.secondaryKpis.uptime.Hours": "小时",
  "views.productivityInsights.secondaryKpis.uptime.Minutes": "分",
  "views.productivityInsights.secondaryKpis.uptime.Seconds": "秒",
  "views.productivityInsights.secondaryKpis.uptimeCounterInformation": "控制器上次遇到重新启动或关闭后的时间量。时间是基于$ROB_TIMER变量。",
  "views.productivityInsights.tile.AverageDuration": "[{weeks} 周平均值]",
  "views.productivityInsights.tile.FaultsLabel": "故障总数",
  "views.productivityInsights.tile.LegendHeader": "系统状态",
  "views.productivityInsights.tile.RobotsLabel": "机器人",
  "views.productivityInsights.tile.RobotsWithFaultsLabel": "有故障的机器人",
  "views.reporting.DatePickerClear": "清除",
  "views.reporting.DatePickerClose": "完成",
  "views.reporting.DatePickerToday": "目前",
  "views.reporting.Download24HrEventLog": "目前的事件日志",
  "views.reporting.Download30DayEventLog": "迄今为止事件日志",
  "views.reporting.DownloadCsvLink": "下载 CSV",
  "views.reporting.DownloadRobotList": "下载机器人列表",
  "views.reporting.EventLogReportEndDatePlaceholder": "结束日期（现在）",
  "views.reporting.EventLogReportHeader": "事件日志报告",
  "views.reporting.EventLogReportStartDatePlaceholder": "开始日期（30 天前）",
  "views.reporting.GenerateReportButton": "生成报告",
  "views.reporting.MaintenanceReportDownloadMessage": "下载维护报告",
  "views.reporting.MaintenanceReportHeader": "维护报告",
  "views.reporting.QuickReportsHeader": "快速报告",
  "views.reporting.ReportingTitle": "报告",
  "views.reporting.RobotListDownloadMessage": "下载机器人列表",
  "views.reporting.RobotListReportHeader": "机器人列表",
  "views.siteAssets.AlertsTableHeader": "警报",
  "views.siteAssets.AssetNameTableHeader": "机器人名称",
  "views.siteAssets.ConditionTableHeader": "条件",
  "views.siteAssets.NoRobotsWarning": "目前没有与该组有关的机器人。请联系管理员解决该问题。",
  "views.siteAssets.SearchAssets": "搜索机器人",
  "views.siteAssets.SerialNumberTableHeader": "序列号",
  "views.siteAssets.SubscriptionTypeTableHeader": "订阅类型",
  "views.siteAssets.Title": "机器人",
  "views.siteAssets.TypeTableHeader": "类型",
  "views.siteAssets.UpgradeToPlus": "升级到 <b>PLUS</b>",
  "views.siteTile.ActiveRobots": "活动的机器人",
  "views.siteTile.RobotGroups": "机器人分组",
  "views.siteTile.RobotsWithFault": "有故障的机器人",
  "views.sites.NoSitesConfiguredWarning": "您目前没有与您账户关联的机器人分组。请联系管理员解决该问题。",
  "views.sites.SearchAssets": "搜索机器人",
  "views.sites.SiteCurrentUptimeRateTableHeader": "7 天正常运行时间",
  "views.sites.SiteNameTableHeader": "分组名称",
  "views.sites.SiteTotalAssetsTableHeader": "机器人总数",
  "views.sites.SiteTotalFaultsTableHeader": "故障总数",
  "views.sites.Title": "机器人",
  "views.tables.ActionsTableHeader": "操作",
  "views.tables.SearchPlaceholder": "搜索",
  "views.unauthorized.ContactAdminMessage": "如果您认为自己错误地收到此信息，请联系您当地的管理员。",
  "views.unauthorized.UnauthorizedMessage": "您没有访问该网站的权限。",
  "views.unauthorized.UnauthorizedTitle": "未授权",
  "views.upgradeCoupon.UpgradeButton": "将机器人升级到 PLUS",
  "views.upgradeCoupon.UpgradeNow": "升级",
  "views.userSettings.buttons.Cancel": "取消",
  "views.userSettings.buttons.SaveAll": "保存全部",
  "views.userSettings.contactInfo.notSet": "未设置",
  "views.userSettings.contactInfo.phone.expectedFormat": "预期的格式: + &lt; 国家代码 &gt;&lt; 电话号码 &gt;;前： +15125554455",
  "views.userSettings.dashboardSection.Expanded": "扩展？",
  "views.userSettings.dashboardSection.Header": "控制面板自定义",
  "views.userSettings.dashboardSection.dragInstructions": "拖动以重新安排卡片显示顺序：",
  "views.userSettings.dashboardSection.dragLimitations": "卡片只有在以前扩展过的情况下才能扩展。",
  "views.userSettings.dashboardSection.welcomeBanner": "开机时显示发布横幅",
  "views.userSettings.localeSection.Header": "语言首选项",
  "views.userSettings.localeSection.Placeholder": "选择显示语言",
  "views.userSettings.settingsSection.AcountUser": "账户使用者",
  "views.userSettings.settingsSection.AlertType": "警报类型",
  "views.userSettings.settingsSection.AssignedGroups": "已分配的组︰",
  "views.userSettings.settingsSection.ContactInformation": "联系信息",
  "views.userSettings.settingsSection.ExternalNotificationSettings": "外部通知设置",
  "views.userSettings.settingsSection.FaultAlerts": "故障警报",
  "views.userSettings.settingsSection.Header": "设置",
  "views.userSettings.settingsSection.MaintenanceAlerts": "维护警报",
  "views.userSettings.settingsSection.Phone": "手机︰",
  "views.userSettings.settingsSection.RobotAlerts": "机器人的警报",
  "views.userSettings.settingsSection.Roles": "角色︰",
  "views.userSettings.settingsSection.UserEmail": "用户电子邮件：",
  "views.userSettings.settingsSection.UserID": "用户 ID：",
  "views.userSettings.settingsSection.UserName": "用户名称：",
  "views.userSettings.settingsSection.externalNotifications.AllFaults": "所有的缺点",
  "views.userSettings.settingsSection.externalNotifications.Complete": "完成",
  "views.userSettings.settingsSection.externalNotifications.CriticalFaults": "严重故障",
  "views.userSettings.settingsSection.externalNotifications.FaultResolved": "故障解决",
  "views.userSettings.settingsSection.externalNotifications.Info": "您将收到只为库卡连接，加上订阅 KUKA 机器人关键故障通知",
  "views.userSettings.settingsSection.externalNotifications.LostConnection": "丢失的连接",
  "views.userSettings.settingsSection.externalNotifications.NewRobot": "新机器人在线",
  "views.userSettings.settingsSection.externalNotifications.OnSchedule": "在预定日期",
  "views.userSettings.settingsSection.externalNotifications.PastDue": "逾期",
  "views.userSettings.settingsSection.externalNotifications.Push": "推送通知 （移动）",
  "views.userSettings.settingsSection.externalNotifications.RobotUnassigned": "未赋值的机器人",
  "views.userSettings.settingsSection.externalNotifications.Sms": "文本消息",
  "views.userSettings.settingsSection.externalNotifications.Unconfirmed": "未经证实的",
  "views.userSettings.settingsSection.externalNotifications.WeekBefore": "1 周前适当",
  "views.userSettings.settingsSection.receiveEmailNotifications": "接收电子邮件通知",
  "views.userSettings.settingsSection.receiveSmsNotifications": "接收文本通知",
  "views.welcome.Admin": "访问管理",
  "views.welcome.CheckRobots": "查看机器人",
  "views.welcome.ConditionMonitoring": "监控条件",
  "views.welcome.DontShowAgain": "不再显示该发布横幅",
  "views.welcome.Greeting": "您好",
  "views.welcome.Maintenance": "维护",
  "views.welcome.Prompt": "您想要做什么？",
  "views.welcome.RunReports": "运行报告",
  "views.welcome.UpgradeToPlus": "升级到 Plus",
  "views.welcome.ViewFaultLog": "查看所有故障"
}