{
  "strings.GenericError": "We're experiencing server errors; please try again later.  If the problem persists, please contact customer service at <a href='mailto:connect.support@kuka.com'>connect.support@kuka.com</a>",
  "strings.HoursAbbreviation": "hrs",
  "strings.MinutesAbbreviation": "mins",
  "strings.NetworkTimeout": "Your connection has timed out. Check your Internet connection and try again. If the problem persists, please contact customer service at <a href='mailto:connect.support@kuka.com'>connect.support@kuka.com</a>",
  "strings.Robot": "Robot",
  "strings.Unknown": "Unknown",
  "strings.commands.Copy": "Clone",
  "strings.commands.Delete": "Delete",
  "strings.commands.Edit": "Edit",
  "strings.dialogs.Cancel": "Cancel",
  "strings.dialogs.Close": "Close",
  "strings.dialogs.Confirm": "Confirm",
  "strings.dialogs.ErrorTitle": "Error",
  "strings.dialogs.Finish": "Finish",
  "strings.dialogs.GenericErrorMessage": "An error occurred while applying your changes. Please try again later.  If the problem persists, please contact customer service at <a href='mailto:connect.support@kuka.com'>connect.support@kuka.com</a>",
  "strings.dialogs.No": "No",
  "strings.dialogs.OK": "OK",
  "strings.dialogs.Save": "Save",
  "strings.dialogs.SaveAll": "Save All",
  "strings.dialogs.Yes": "Yes",
  "strings.errors.input.blacklist": "The entry already exists. Add a new entry.",
  "strings.errors.input.empty": "The field cannot be empty.",
  "strings.errors.input.pattern": "The entry does not match the expected pattern. Add a new entry.",
  "strings.errors.upgrade.applyingLicenses": "There was an issue upgrading your robots.  Please try again later. If the problem persists, please contact customer service at <a href='mailto:connect.support@kuka.com'>connect.support@kuka.com</a>.",
  "strings.errors.upgrade.applyingLicensesDowngrade": "There was an issue downgrading your robots.  Please try again later. If the problem persists, please contact customer service at <a href='mailto:connect.support@kuka.com'>connect.support@kuka.com</a>.",
  "strings.errors.upgrade.desktopExpected": "The robot upgrading process is not available via the KUKA Connect mobile experience (or exceedingly narrow desktop browsers). Please log in from a tablet or desktop browser to upgrade your robots.",
  "strings.errors.upgrade.desktopExpectedDowngrade": "The robot downgrading process is not available via the KUKA Connect mobile experience (or exceedingly narrow desktop browsers). Please log in from a tablet or desktop browser to upgrade your robots.",
  "strings.errors.upgrade.insufficientPrivilege": "You do not have sufficient privilege to upgrade robots.  Please contact your administrator to resolve this issue.",
  "strings.errors.upgrade.insufficientPrivilegeDowngrade": "You do not have sufficient privilege to downgrade robots.  Please contact your administrator to resolve this issue.",
  "strings.errors.upgrade.retrievingLicenses": "There was an issue retrieving your available licenses.  Please try again later. If the problem persists, please contact customer service at <a href='mailto:connect.support@kuka.com'>connect.support@kuka.com</a>.",
  "strings.internalNotificationType.Onboard": "<b>Robot has come online:  {param}.</b>  Assign it to groups and confirm/edit maintenance schedule.",
  "strings.internalNotificationType.PredictiveMaintenance": "<b>Robot {param} has an abnormal motor temperature.</b>  You should check whether this robot requires maintenance.",
  "strings.maintenanceType.Axis": "Main axis",
  "strings.maintenanceType.Backlash": "Backlash measurement",
  "strings.maintenanceType.Basic": "Basic inspection",
  "strings.maintenanceType.BeltReplacement": "Belt replacement",
  "strings.maintenanceType.DataBackup": "Data back-up",
  "strings.maintenanceType.MajorElectrical": "Major electrical",
  "strings.maintenanceType.MinorElectrical": "Minor electrical",
  "strings.maintenanceType.Unknown": "Other",
  "strings.maintenanceType.Wrist": "Wrist",
  "strings.notify.guestOrg.Message": "You are not associated with any organization.  You may continue to use the application, but your experience will be limited.  Please contact your administrator to resolve this issue.",
  "strings.notify.guestOrg.Title": "No Associated Organization",
  "strings.pageTitles.Administration": "Administration",
  "strings.pageTitles.AssetGroupDetails": "Robot Group Details",
  "strings.pageTitles.DeviceDetails": "Robot Details",
  "strings.pageTitles.GlobalFaults": "Faults",
  "strings.pageTitles.Home": "Dashboard",
  "strings.pageTitles.Login": "Login",
  "strings.pageTitles.Monitor": "Cloud & Cluster Monitor",
  "strings.pageTitles.RoleDetails": "Role Details",
  "strings.pageTitles.Unauthorized": "Unauthorized",
  "strings.pageTitles.UserDetails": "User Details",
  "strings.pageTitles.UserSettings": "User Settings",
  "strings.roles.OrgAdmin": "Administrator",
  "strings.roles.UberAdmin": "Uber",
  "strings.softwareFeatures.Administration": "Administration",
  "strings.softwareFeatures.ConditionMonitoring": "Condition Monitoring",
  "strings.softwareFeatures.Licenses": "Licensing",
  "strings.softwareFeatures.Maintenance": "Maintenance",
  "strings.softwareFeatures.Reports": "Reports",
  "strings.subscriptionType.Lite": "Lite",
  "strings.subscriptionType.Plus": "Plus",
  "views.admin.AdministrationTitle": "admin settings",
  "views.admin.CreateAndEditAssetGroups": "Create and Edit Robot Groups",
  "views.admin.CreateAndEditRoles": "Create and Edit Roles",
  "views.admin.CreateNewUser": "Add New User",
  "views.admin.CreateNewUserPopover.InviteUser": "Invite User",
  "views.admin.CreateNewUserPopover.PopoverTitle": "Add New User",
  "views.admin.CreateNewUserPopover.ViewPendingInvites": "View Pending Invites",
  "views.admin.NotAvailableOnMobileMessage": "Administration is not available via the KUKA Connect mobile experience. Please login from a tablet or desktop browser to administer your organization.",
  "views.admin.PendingInvitesFailedWarningMessage": "We are temporarily having trouble retrieving invited users. You may not see users who you have invited, but have not yet completed the registration process. Please try again later. If the problem persists, please contact customer support at <a href='mailto:connect.support@kuka.com'>connect.support@kuka.com</a>",
  "views.admin.assetGroupDetails.AddNewAssetGroup": "Add New Robot Group",
  "views.admin.assetGroupDetails.AssetGroupsTableTitle": "All Robot Groups",
  "views.admin.assetGroupDetails.AssetGroupsTitle": "Robot Groups",
  "views.admin.assetGroupDetails.Cancel": "Cancel",
  "views.admin.assetGroupDetails.Save": "Save",
  "views.admin.assetGroupDetails.SearchAssetGroups": "Search Robot Groups",
  "views.admin.assetGroupDetails.assetGroupTable.AssetGroupNameTableHeader": "Name",
  "views.admin.assetGroupDetails.assetGroupTable.AssetsTableHeader": "Robots",
  "views.admin.assetGroupDialog.CreateAssetGroupDialogTitle": "Create New Robot Group",
  "views.admin.assetGroupDialog.EditAssetGroupDialogTitle": "Edit Robot Group",
  "views.admin.assetGroupDialog.GroupNameLabel": "Group Name",
  "views.admin.assetGroupDialog.SelectAll": "Select All",
  "views.admin.assetGroupDialog.SerialNumberPrefix": "Serial",
  "views.admin.assetGroupErrorDialog.ErrorDialogTitle": "Error Saving Robot Groups",
  "views.admin.externalNotificationSettingsErrorDialog.ErrorDialogTitle": "Error Saving External Notification Settings",
  "views.admin.inviteResultsDialog.BatchInvitesFailedMessage": "An error occurred sending these invitations. Please try again or contact these users directly.",
  "views.admin.inviteResultsDialog.BatchInvitesSucceededMessage": "{invitationCount, plural, one{The following user has been invited to your organization:} other {The following users have been invited to your organization:}}",
  "views.admin.inviteResultsDialog.BatchInvitesSucceededMessageSuffix": "{invitationCount, plural, one{An email has been sent to this user.} other {Emails have been sent to these users.}}",
  "views.admin.inviteResultsDialog.InvitesFailed": "Invitation Error",
  "views.admin.inviteResultsDialog.InvitesSucceeded": "{invitationCount, plural, one{Invitation} other {Invitations}} Successfully Sent",
  "views.admin.inviteUserDialog.AddRoles": "Click to Add Roles...",
  "views.admin.inviteUserDialog.AddSites": "Click to Add Robot Groups...",
  "views.admin.inviteUserDialog.ConfirmInviteButton": "Add Invite",
  "views.admin.inviteUserDialog.EmailLabel": "Email",
  "views.admin.inviteUserDialog.ErrorTitle": "Error Inviting User",
  "views.admin.inviteUserDialog.InviteUserDialogTitle": "Invite Users",
  "views.admin.inviteUserDialog.SendAllInvitations": "Send Invitations",
  "views.admin.inviteUserDialog.pendingInvitesTable.AssetGroupsTableHeader": "Robot Groups",
  "views.admin.inviteUserDialog.pendingInvitesTable.EmailTableHeader": "Email",
  "views.admin.inviteUserDialog.pendingInvitesTable.RolesTableHeader": "Roles",
  "views.admin.pendingInvitesDialog.ConfirmResendMessage": "Are you sure you want to resend the invitation for {param}?",
  "views.admin.pendingInvitesDialog.ConfirmResendTitle": "Resend Invitation?",
  "views.admin.pendingInvitesDialog.ErrorMessage": "Unable to uninvite {param} from the organization.  Please try again later. If the problem persists, please contact customer support.",
  "views.admin.pendingInvitesDialog.ErrorTitle": "Error Uninviting User",
  "views.admin.pendingInvitesDialog.ReinviteNoEmailMessage": "Unable to generate an email, please contact {param} directly.",
  "views.admin.pendingInvitesDialog.ReinviteNoEmailTitle": "Error Reinviting User",
  "views.admin.roleDetails.AddNewRole": "Add New Role",
  "views.admin.roleDetails.Cancel": "Cancel",
  "views.admin.roleDetails.RolesTableTitle": "All Roles",
  "views.admin.roleDetails.RolesTitle": "Roles",
  "views.admin.roleDetails.Save": "Save",
  "views.admin.roleDetails.SearchRoles": "Search Roles",
  "views.admin.roleDetails.rolesTable.FeaturesTableHeader": "Software Features",
  "views.admin.roleDetails.rolesTable.RoleNameTableHeader": "Name",
  "views.admin.roleDetails.rolesTable.SoftwareFeaturesAll": "All Features",
  "views.admin.roleDetails.rolesTable.SoftwareFeaturesNone": "None",
  "views.admin.roleDetails.rolesTable.UsersTableHeader": "Users",
  "views.admin.roleDetailsErrorDialog.ErrorDialogTitle": "Error Saving Roles",
  "views.admin.roleDialog.CreateNewRoleTitle": "Create New Role",
  "views.admin.roleDialog.EditRoleTitle": "Edit Role",
  "views.admin.roleDialog.ExistingRoleLabel": "Existing Role",
  "views.admin.roleDialog.IncludedSoftwareFeatures": "Included Software Features",
  "views.admin.roleDialog.RoleNamePlaceholderText": "New Role Name",
  "views.admin.roleDialog.SelectRolePlaceholder": "Select Role",
  "views.admin.roleDialog.SelectRoleTitle": "Select Role",
  "views.admin.roleDialog.SelectSoftwareFeaturesTitle": "Select Software Features",
  "views.admin.saveErrorDialog.GenericErrorMessage": "An error occurred while applying your changes: {errorMessage}. Please try again later. If the problem persists, please contact customer support at <a href='mailto:connect.support@kuka.com'>connect.support@kuka.com</a>",
  "views.admin.selectAssetGroupDialog.Groups": " Groups",
  "views.admin.selectAssetGroupDialog.SelectAssetGroupDialogTitle": "Select Robot Groups",
  "views.admin.selectRolesDialog.Roles": " Roles",
  "views.admin.selectRolesDialog.SelectRolesDialogTitle": "Select Roles",
  "views.admin.userDetails.AssetGroups.AddAssetGroupButtonLabel": "Select Robot Groups",
  "views.admin.userDetails.AssetGroupsTableTitle": "Robot Group Access",
  "views.admin.userDetails.BasicInfo": "Basic Info",
  "views.admin.userDetails.Cancel": "Cancel",
  "views.admin.userDetails.EmailLabel": "Email",
  "views.admin.userDetails.FirstNameLabel": "First Name",
  "views.admin.userDetails.NoGroupsDialogMessage": "There are currently no robot groups to associate to this user. You can create groups by clicking on Create and Edit Robot Groups from the main administration screen.",
  "views.admin.userDetails.NoGroupsDialogTitle": "No Groups",
  "views.admin.userDetails.Roles.AddRoleButtonLabel": "Select Roles",
  "views.admin.userDetails.RolesTableTitle": "Roles",
  "views.admin.userDetails.SaveAll": "Save All",
  "views.admin.userDetails.SurnameLabel": "Surname",
  "views.admin.userDetails.UserNameLabel": "User ID",
  "views.admin.userDetails.assetGroupTable.AssetGroupTableHeader": "Robot Group",
  "views.admin.userDetails.rolesTable.FeaturesTableHeader": "Features",
  "views.admin.userDetails.rolesTable.RoleTableHeader": "Role",
  "views.admin.userDetailsErrorDialog.ErrorDialogTitle": "Error Saving User Info",
  "views.admin.users.UsersTitle": "All Users",
  "views.admin.users.removeUserConfirmationDialog.DialogMessage": "Remove {param} from this organization?",
  "views.admin.users.removeUserConfirmationDialog.DialogTitle": "Remove User",
  "views.admin.users.revokeInviteConfirmationDialog.DialogMessage": "Revoke invitation for {param}?",
  "views.admin.users.revokeInviteConfirmationDialog.DialogTitle": "Revoke Invitation",
  "views.admin.users.userTable.NoAssociatedRoles": "None",
  "views.admin.users.userTable.RemoveUserTooltipText": "Remove user from your organization",
  "views.admin.users.userTable.ResendInvitationTooltipText": "Resend Invitation",
  "views.admin.users.userTable.RevokeUserInviteTooltipText": "Revoke Invitation",
  "views.admin.users.userTable.SearchUsers": "Search Users",
  "views.admin.users.userTable.UserAssetGroupsTableHeader": "Robot Groups",
  "views.admin.users.userTable.UserGroupsInterpolation": "{groupCount, plural, =0{None} one{1 Group} other{# Groups}}",
  "views.admin.users.userTable.UserNameTableHeader": "Name",
  "views.admin.users.userTable.UserRolesInterpolation": "{roleCount, plural, =0{} one{& 1 Other} other{& # Others}}",
  "views.admin.users.userTable.UserRolesTableHeader": "Roles",
  "views.admin.users.userTable.UserStatusActive": "Active",
  "views.admin.users.userTable.UserStatusPending": "Pending",
  "views.admin.users.userTable.UserStatusTableHeader": "Status",
  "views.asset.faultBanner.Download": "Download",
  "views.asset.faultBanner.Help": "Help",
  "views.asset.faultBanner.NoTroubleshootingInfo": "No additional details",
  "views.asset.faultBanner.PossibleCauses": "Possible Causes:",
  "views.asset.faultBanner.Title": "Faults",
  "views.asset.faultBanner.UnknownStateWarning": "Unable to query the device for active faults.",
  "views.asset.faultBanner.ViewAlertInEventLog": "View Alert in Event Log",
  "views.asset.faultBanner.ViewProductManual": "View Product Manual",
  "views.asset.status.CannotDisplay3dModel": "Your browser is unable to display the 4D model.",
  "views.asset.status.CannotDisplayImagesWarning": "There currently are no images available to display.",
  "views.asset.status.Condition": "State",
  "views.asset.status.ControllerDetails": "Controller Details",
  "views.asset.status.ControllerOSVersion": "Controller Firmware",
  "views.asset.status.ControllerSerialNumber": "Serial Number",
  "views.asset.status.ControllerType": "Type",
  "views.asset.status.Download": "Download Product Manual",
  "views.asset.status.NoDeviceModelInformationError": "Information about this robot model is not known. If the problem persists, please contact customer support at <a href='mailto:connect.support@kuka.com'>connect.support@kuka.com</a>.",
  "views.asset.status.NoOperationalDataWarning": "There currently is no operational data to display.",
  "views.asset.status.RobotDetails": "Robot Details",
  "views.asset.status.RobotSerialNumber": "Serial Number",
  "views.asset.status.RobotType": "Type",
  "views.asset.status.Status": "Operating Mode",
  "views.asset.status.SubscriptionTypeCaption": "Subscription Type",
  "views.asset.status.UpgradeMessage": "Upgrade to <b>KUKA Connect PLUS</b> for our live 4D model.",
  "views.asset.status.UpgradeToPlus": "Upgrade to <b>PLUS</b>",
  "views.asset.status.ViewProductManual": "View Product Manual",
  "views.asset.timeline.Current": "Current",
  "views.asset.timeline.EventLog": "Event Log",
  "views.asset.timeline.FaultSeries": "Faults",
  "views.asset.timeline.FilterEvents.All": "All Events",
  "views.asset.timeline.FilterEvents.Faults": "Faults",
  "views.asset.timeline.FilterEvents.Header": "Filter Events:",
  "views.asset.timeline.FilterEvents.Maintenance": "Maintenance",
  "views.asset.timeline.HistoricalQueryFailed": "Unable to retrieve historical faults. Please try again later. If the problem persists, please contact customer support at <a href='mailto:connect.support@kuka.com'>connect.support@kuka.com</a>.",
  "views.asset.timeline.MaintenanceQueryFailed": "Unable to retrieve maintenance milestones. Please try again later. If the problem persists, please contact customer support at <a href='mailto:connect.support@kuka.com'>connect.support@kuka.com</a>.",
  "views.asset.timeline.MaintenanceSeries": "Maintenance",
  "views.asset.timeline.Navigation": "Navigation:",
  "views.asset.timeline.ProductivityInsights": "Condition Monitoring",
  "views.asset.timeline.RobotTimeline": "Timeline",
  "views.asset.timeline.SearchEventLog": "Search Event Log",
  "views.asset.timeline.TimeRange": "Time Range:",
  "views.asset.timeline.TimeRangeDays": "{days, plural, one{# day} other{# days}}",
  "views.asset.timeline.TimeRangeHours": "{hours, plural, one{# hour} other{# hours}}",
  "views.asset.timeline.TimeRangeMonths": "{months, plural, one{# month} other{# months}}",
  "views.asset.timeline.TimeRangeWeeks": "{weeks, plural, one{# week} other{# weeks}}",
  "views.asset.timeline.timeRangeInformation": "The time range feature changes the time window for all items on this card.",
  "views.assetDetails.status.Condition": "Condition",
  "views.assetDetails.status.ViewProductManual": "View Product Manual",
  "views.common.directives.dateRangePicker.ApplyLabel": "Apply",
  "views.common.directives.dateRangePicker.CancelLabel": "Cancel",
  "views.common.directives.dateRangePicker.CustomRange": "Custom range",
  "views.common.directives.dateRangePicker.DayLabel": "Day",
  "views.common.directives.dateRangePicker.EndLabel": "End",
  "views.common.directives.dateRangePicker.Last30Days": "Last 30 days",
  "views.common.directives.dateRangePicker.LastYear": "Last year",
  "views.common.directives.dateRangePicker.MonthLabel": "Month",
  "views.common.directives.dateRangePicker.StartLabel": "Start",
  "views.common.directives.dateRangePicker.YearLabel": "Year",
  "views.common.directives.robotSelector.RobotSelectorCaption": "Select Robots",
  "views.common.directives.robotSelector.ViewAllRobots": "View All",
  "views.common.directives.robotSelector.ViewByFogNode": "View By fogNode",
  "views.common.directives.robotSelector.ViewByGroups": "View by Group",
  "views.common.upgradeRobot.redirectToStoreDialog.RedirectMessage": "When this dialog closes, you will be redirected to our store to purchase licenses.",
  "views.common.upgradeRobot.redirectToStoreDialog.RedirectTitle": "About to Redirect",
  "views.common.upgradeRobot.upgradeConfirmationDialog.AssetActionTableHeader": "Delete",
  "views.common.upgradeRobot.upgradeConfirmationDialog.AssetIdTableHeader": "SN",
  "views.common.upgradeRobot.upgradeConfirmationDialog.AssetNameTableHeader": "Robot Name",
  "views.common.upgradeRobot.upgradeConfirmationDialog.AssetTypeTableHeader": "Type",
  "views.common.upgradeRobot.upgradeConfirmationDialog.CancelButton": "Cancel Upgrade",
  "views.common.upgradeRobot.upgradeConfirmationDialog.CancelDowngradeButton": "Cancel Downgrade",
  "views.common.upgradeRobot.upgradeConfirmationDialog.ConfirmButton": "Confirm Upgrade",
  "views.common.upgradeRobot.upgradeConfirmationDialog.ConfirmDowngradeButton": "Confirm Downgrade",
  "views.common.upgradeRobot.upgradeConfirmationDialog.DowngradeTitle": "Please confirm the robots listed for downgrade",
  "views.common.upgradeRobot.upgradeConfirmationDialog.SerialNumberPrefix": "Serial",
  "views.common.upgradeRobot.upgradeConfirmationDialog.Title": "Please confirm the robots listed for upgrade",
  "views.common.upgradeRobot.upgradeDialog.AvailableLicensesMessage": "{licenseCount, plural, =0{You have no available upgrade licenses.} one{You have 1 available upgrade license.} other{You have # available upgrade licenses.}}",
  "views.common.upgradeRobot.upgradeDialog.DowngradeButton": "Downgrade Selected Robots",
  "views.common.upgradeRobot.upgradeDialog.PurchaseMessage": "Click here if you would like to purchase more licenses.",
  "views.common.upgradeRobot.upgradeDialog.RobotSelectorCaption": "Select Robots",
  "views.common.upgradeRobot.upgradeDialog.RobotsSelectedMessage": "{robotsSelected, plural, =0{No Robots Selected} one{1 Robot Selected} other{# Robots Selected}}",
  "views.common.upgradeRobot.upgradeDialog.SelectAll": "Select All",
  "views.common.upgradeRobot.upgradeDialog.SelectRobotsDowngradeMessage": "Select which robots you would like to downgrade.",
  "views.common.upgradeRobot.upgradeDialog.SelectRobotsMessage": "Select which robots you would like to upgrade.",
  "views.common.upgradeRobot.upgradeDialog.SerialNumberPrefix": "Serial",
  "views.common.upgradeRobot.upgradeDialog.Title": "Apply Licenses",
  "views.common.upgradeRobot.upgradeDialog.UberSwitchButton": "Uber: Switch Modes",
  "views.common.upgradeRobot.upgradeDialog.UpgradeButton": "Upgrade Selected Robots",
  "views.common.upgradeRobot.upgradeDialog.ViewAllRobots": "View All",
  "views.common.upgradeRobot.upgradePickerDialog.CancelButton": "Cancel Upgrade",
  "views.common.upgradeRobot.upgradePickerDialog.Message": "You've chosen to upgrade {robotName} to <b>KUKA Connect Plus</b>.  Please confirm your subscription.",
  "views.common.upgradeRobot.upgradePickerDialog.RobotType": "Robot Type",
  "views.common.upgradeRobot.upgradePickerDialog.SerialNumber": "Serial Number",
  "views.common.upgradeRobot.upgradePickerDialog.UpgradeAdditionalButton": "Upgrade Additional Robots",
  "views.common.upgradeRobot.upgradePickerDialog.UpgradeThisButton": "Upgrade this Robot to PLUS",
  "views.common.upgradeRobot.upgradeResultsDialog.FailureDowngradeMessage": "Oops!  Only {successCount}/{totalCount} robots downgraded successfully.  Contact your administrator for help troubleshooting the issue.",
  "views.common.upgradeRobot.upgradeResultsDialog.FailureDowngradeTitle": "Downgrade Error",
  "views.common.upgradeRobot.upgradeResultsDialog.FailureMessage": "Oops!  Only {successCount}/{totalCount} robots upgraded successfully.  Contact your administrator for help troubleshooting the issue.",
  "views.common.upgradeRobot.upgradeResultsDialog.FailureSingleDowngradeMessage": "Oops!  Your robot was not downgraded successfully.  Contact your administrator for help troubleshooting the issue.",
  "views.common.upgradeRobot.upgradeResultsDialog.FailureSingleMessage": "Oops!  Your robot was not upgraded successfully.  Contact your administrator for help troubleshooting the issue.",
  "views.common.upgradeRobot.upgradeResultsDialog.FailureTitle": "Upgrade Error",
  "views.common.upgradeRobot.upgradeResultsDialog.RebootPendingMessage": "The website will refresh when this dialog closes to reflect your changes.",
  "views.common.upgradeRobot.upgradeResultsDialog.SuccessfulDowngradeMessage": "Congrats!  {successCount}/{totalCount} robots downgraded successfully.",
  "views.common.upgradeRobot.upgradeResultsDialog.SuccessfulDowngradeTitle": "Downgrade Successful",
  "views.common.upgradeRobot.upgradeResultsDialog.SuccessfulMessage": "Congrats!  {successCount}/{totalCount} robots upgraded successfully.",
  "views.common.upgradeRobot.upgradeResultsDialog.SuccessfulSingleDowngradeMessage": "Congrats!  Your robot downgraded successfully.",
  "views.common.upgradeRobot.upgradeResultsDialog.SuccessfulSingleMessage": "Congrats!  Your robot upgraded successfully.",
  "views.common.upgradeRobot.upgradeResultsDialog.SuccessfulTitle": "Upgrade Successful",
  "views.faultLog.FaultLogTabTitle": "Fault Log",
  "views.faultLog.NoEventsMessage": "No events",
  "views.faultLog.UpgradeToPlus": "Upgrade to <b>KUKA Connect PLUS</b> to view events for your robots.",
  "views.faultLog.faultTable.ActionHeader": "Action",
  "views.faultLog.faultTable.ClearedFaultTooltip": "Cleared",
  "views.faultLog.faultTable.DetailsHeader": "Details",
  "views.faultLog.faultTable.DurationTableHeader": "Duration",
  "views.faultLog.faultTable.FaultDescriptionTableHeader": "Message",
  "views.faultLog.faultTable.FaultTooltip": "Fault",
  "views.faultLog.faultTable.InFaultTooltip": "Active",
  "views.faultLog.faultTable.MaintenanceTooltip": "Maintenance",
  "views.faultLog.faultTable.ProjectTableHeader": "Project",
  "views.faultLog.faultTable.SerialNumberTableHeader": "Robot SN",
  "views.faultLog.faultTable.StatusTableHeader": "Status",
  "views.faultLog.faultTable.TimeTableHeader": "Date/Time",
  "views.faultLog.faultTable.TypeTableHeader": "Type",
  "views.globalFaults.GlobalFaultsTitle": "Fault Log",
  "views.globalFaults.SearchAllFaultsPlaceholder": "Search Fault Log",
  "views.globalFaults.tile.UpgradeMessage": "Upgrade to <b>KUKA Connect PLUS</b> for our real-time fault log feature.",
  "views.header.breadcrumbs.AllRobots": "All Robot Groups",
  "views.header.breadcrumbs.Dashboard": "Dashboard",
  "views.home.assetTable.AssetIdTableHeader": "Robot Identifier",
  "views.home.assetTable.AssetNameTableHeader": "Robot Name",
  "views.home.assetTable.AssetTypeTableHeader": "Robot Type",
  "views.kpis.graphs.historical.AboveAverageTemperature": "Tracked KPI value is <b>above</b> its historic norm.",
  "views.kpis.graphs.historical.AveMotorCurrentLabel": "Motor Current",
  "views.kpis.graphs.historical.AveMotorForceLabel": "Motor Force",
  "views.kpis.graphs.historical.AveMotorTemperatureLabel": "Motor Temperature",
  "views.kpis.graphs.historical.AveMotorTemperatureTitle": "Motor Temperature",
  "views.kpis.graphs.historical.Axis": "Axis {axis}",
  "views.kpis.graphs.historical.AxisLabel": "View by Axis: ",
  "views.kpis.graphs.historical.BelowAverageTemperature": "Tracked KPI value is <b>below</b> its historic norm.",
  "views.kpis.graphs.historical.EnergyLabel": "Energy Consumption",
  "views.kpis.graphs.historical.EnergyTitle": "Energy Consumption",
  "views.kpis.graphs.historical.ForceTitle": "Motor Force (torque)",
  "views.kpis.graphs.historical.MaxMotorCurrentLabel": "Maximum Motor Current",
  "views.kpis.graphs.historical.MaxMotorTemperatureLabel": "Maximum Motor Temperature",
  "views.kpis.graphs.historical.Maximum": "Maximum",
  "views.kpis.graphs.historical.Mean": "Mean",
  "views.kpis.graphs.historical.Median": "Median",
  "views.kpis.graphs.historical.MinMotorCurrentLabel": "Minimum Motor Current",
  "views.kpis.graphs.historical.MinMotorTemperatureLabel": "Minimum Motor Temperature",
  "views.kpis.graphs.historical.Minimum": "Minimum",
  "views.kpis.graphs.historical.MotorCurrentLabel": "Motor Current",
  "views.kpis.graphs.historical.MotorCurrentTitle": "Motor Current",
  "views.kpis.graphs.historical.MotorTemperatureTitle": "Motor Temperature",
  "views.kpis.graphs.historical.StandardDeviation": "Standard Deviation",
  "views.kpis.kpiNames.Connectivity": "connectivity",
  "views.kpis.kpiNames.EnergyConsumption": "average energy consumption",
  "views.kpis.units.Ampere": "A",
  "views.kpis.units.Celsius": "°C",
  "views.kpis.units.KW": "kW",
  "views.kpis.units.NewtonMeter": "Nm",
  "views.login.LoginButton": "Sign in with KUKA",
  "views.maintenance.All": "All",
  "views.maintenance.Completed": "Completed",
  "views.maintenance.Filter": "Filter View:",
  "views.maintenance.MaintenanceEventTable.DateTimeHeader": "Date",
  "views.maintenance.MaintenanceEventTable.DetailsHeader": "Details",
  "views.maintenance.MaintenanceEventTable.RobotHeader": "Robot",
  "views.maintenance.MaintenanceEventTable.StatusHeader": "Status",
  "views.maintenance.Overdue": "Past Due",
  "views.maintenance.Predicted": "Auto-scheduled",
  "views.maintenance.Today": "Today",
  "views.maintenance.Upcoming": "Manually scheduled",
  "views.maintenance.details.CompletedBy": "Completed By",
  "views.maintenance.details.CompletedDate": "Completed Date",
  "views.maintenance.details.CompletedRobRun": "Completed RobRun",
  "views.maintenance.details.CurrentRobRun": "RobRun",
  "views.maintenance.details.ErrorSavingMessage": "There was an error saving your maintenance milestone. Please try again. If the problem persists, please contact customer support at <a href='mailto:connect.support@kuka.com'>connect.support@kuka.com</a>.",
  "views.maintenance.details.ErrorSavingTitle": "Error saving maintenance milestone",
  "views.maintenance.details.FirstConnected": "Connected-On",
  "views.maintenance.details.LastCompleted": "Last date completed",
  "views.maintenance.details.LastCompletedPlaceholder": "Not entered",
  "views.maintenance.details.MaintenanceCompleteLabel": "Maintenance Complete",
  "views.maintenance.details.MaintenanceDetailsHeader": "Maintenance details",
  "views.maintenance.details.MaintenanceStatus": "Maintenance Status",
  "views.maintenance.details.MaintenanceType": "Maintenance Type",
  "views.maintenance.details.Notes": "Notes",
  "views.maintenance.details.NotesPlaceholder": "Type notes here.",
  "views.maintenance.details.OverridePrediction": "Manually schedule date",
  "views.maintenance.details.PostNote": "Post",
  "views.maintenance.details.PredictedDate": "Date recommended",
  "views.maintenance.details.PredictedDatePlaceholder": "Save to recalculate",
  "views.maintenance.details.RobotDetailsHeader": "Robot details",
  "views.maintenance.details.ScheduledDate": "Scheduled Date",
  "views.maintenance.details.SerialNumber": "Serial Number",
  "views.maintenance.details.UserUnknown": "Unknown",
  "views.maintenance.details.resultsDialog.EventCompleted": "The milestone was marked as complete on {completedDate}",
  "views.maintenance.details.resultsDialog.EventCompletedFailed": "The milestone could not be marked as complete. Please try again later.",
  "views.maintenance.details.resultsDialog.LastCompletedDateSet": "The last completed date was set to {lastCompletedDate}",
  "views.maintenance.details.resultsDialog.LastCompletedDateSetFailed": "The last completed date could not be set. Please try again later.",
  "views.maintenance.details.resultsDialog.NotesAdded": "{num, plural, one{One note was} other{# notes were}} added",
  "views.maintenance.details.resultsDialog.NotesFailed": "Failed to append {num, plural, one{one note} other{# notes}}. Please try again later.",
  "views.maintenance.details.resultsDialog.PredictedDateOverridden": "The milestone was scheduled for {scheduledDate}",
  "views.maintenance.details.resultsDialog.PredictedDateOverrideFailed": "Could not schedule this milestone. Please try again later.",
  "views.maintenance.details.resultsDialog.SetToPredict": "KUKA Connect will now auto-schedule this milestone",
  "views.maintenance.details.resultsDialog.SetToPredictFailed": "Could not auto-schedule this milestone. Please try again later",
  "views.maintenance.details.resultsDialog.Title": "Maintenance milestone modified",
  "views.maintenance.mobile.navigation.SwipeToNavigate": "(swipe calendar to change month)",
  "views.maintenance.tile.Completed": "Completed (last 30 days)",
  "views.maintenance.tile.Overdue": "Past due maintenance",
  "views.maintenance.tile.Title": "Maintenance",
  "views.maintenance.tile.Upcoming": "Upcoming (next 30 days)",
  "views.monitor.NotAvailableOnMobileMessage": "Cloud monitoring is not available via the KUKA Connect mobile experience. Please login from a tablet or desktop browser to view your cloud health.",
  "views.monitor.deployNsmDialog.DeployFailureMessage": "There was a problem with the NSM instance.",
  "views.monitor.deployNsmDialog.DialogTitle": "NSM instance",
  "views.monitor.deployNsmDialog.DuplicateError": "You already have an NSM instance with this Host & Port and User Name.",
  "views.monitor.deployNsmDialog.HostAndPortLabel": "Host and Port",
  "views.monitor.deployNsmDialog.HostAndPortPlaceholder": "Ex: nsm01.nebbiolo.io:8082",
  "views.monitor.deployNsmDialog.PasswordLabel": "Password",
  "views.monitor.deployNsmDialog.UserNameLabel": "User Name",
  "views.monitor.deployNsmDialog.UserNamePlaceholder": "Ex: admin",
  "views.monitor.latestUpdates.LatestUpdatesTitle": "Latest Updates From Nsm",
  "views.monitor.latestUpdates.latestUpdatesTable.EntityIdTableHeader": "Entity Id",
  "views.monitor.latestUpdates.latestUpdatesTable.SerialNumberTableHeader": "Serial #",
  "views.monitor.latestUpdates.latestUpdatesTable.TimeTableHeader": "Time",
  "views.monitor.nsmDetails.ConfirmDeletion": "Are you sure you want to delete {param} from this organization?",
  "views.monitor.nsmDetails.DeployButtonLabel": "Deploy NSM...",
  "views.monitor.nsmDetails.NoNsmDeployed": "No NSM Deployed",
  "views.monitor.nsmDetails.NsmDetailsTitle": "Nebbiolo System Manager Instances",
  "views.monitor.nsmDetails.nsmInstancesTable.ConnectedDevicesHeader": "Connected Devices",
  "views.monitor.nsmDetails.nsmInstancesTable.HostTableHeader": "Host",
  "views.monitor.nsmDetails.nsmInstancesTable.StatusHeader": "Current Status",
  "views.monitor.runningServices.ServicesTableTitlePrefix": "Services Running On",
  "views.monitor.runningServices.servicesTable.NumReplicasTableHeader": "# Replicas",
  "views.monitor.runningServices.servicesTable.ServiceNameTableHeader": "Service Name",
  "views.monitor.runningServices.servicesTable.ServiceVersionTableHeader": "Service Version",
  "views.navbar.FaultsBrokenErrorTooltip": "Cannot display active faults. Please try again later. If the problem persists, please contact customer service.",
  "views.navbar.MenuTitle": "Menu",
  "views.navbar.NewFaultsButton": "Current Faults",
  "views.navbar.Notifications.DismissAll": "Dismiss All",
  "views.navbar.Notifications.MarkAllRead": "Mark All as Read",
  "views.navbar.Notifications.NoNotifications": "No new notifications!",
  "views.navbar.Notifications.Title": "Notifications",
  "views.navbar.NotificationsBrokenErrorTooltip": "Cannot display active notifications. Please try again later. If the problem persists, please contact customer service.",
  "views.navbar.NotificationsButton": "Notifications",
  "views.navbar.SearchAllPlaceholder": "Search All",
  "views.navbar.menu.Administration": "Administration",
  "views.navbar.menu.FAQ": "FAQ",
  "views.navbar.menu.GettingStarted": "Getting Started",
  "views.navbar.menu.Logout": "Logout",
  "views.navbar.menu.Monitor": "Monitor",
  "views.navbar.menu.Settings": "User Settings",
  "views.onboarding.banner.Message": "Onboard this robot by assigning it to groups and confirming maintenance schedule.",
  "views.onboarding.banner.OnboardButton": "Onboard robot",
  "views.onboarding.banner.Title": "This robot recently came online.",
  "views.onboarding.wizard.AssignToGroups": "Assign to Group(s)",
  "views.onboarding.wizard.ConnectRobot": "Connect Robot",
  "views.onboarding.wizard.Continue": "Continue",
  "views.onboarding.wizard.ErrorSavingMessage": "There was an error onboarding your robot. Please try again. If the problem persists, please contact customer support at <a href='mailto:connect.support@kuka.com'>connect.support@kuka.com</a>.",
  "views.onboarding.wizard.ErrorSavingTitle": "Error saving your onboarding data",
  "views.onboarding.wizard.RobotGroupsCaption": "Assign your robot to groups.",
  "views.onboarding.wizard.ScheduleMaintenance": "Schedule Maintenance",
  "views.onboarding.wizard.ScheduleMaintenanceCaption": "Enter <b>last completed maintenance dates</b> for the most accurate scheduling. Scheduling may adjust as more robot data is gathered.",
  "views.onboarding.wizard.ScheduledMaintenanceError": "There is no predicted maintenance for this robot",
  "views.onboarding.wizard.SkipStep": "Skip this step",
  "views.onboarding.wizard.Title": "Robot onboarding",
  "views.onboarding.wizard.maintenanceTable.DateHeader": "Add last maintenance",
  "views.onboarding.wizard.maintenanceTable.DescriptionTableHeader": "Maintenance Description",
  "views.onboarding.wizard.maintenanceTable.EnterDate": "Select date",
  "views.onboarding.wizard.robotGroupTable.RobotGroupTableHeader": "Robot Group",
  "views.predictiveMaintenance.banner.Button": "View in Condition Monitoring",
  "views.predictiveMaintenance.banner.Message": "A value outside the normal range was detected for this robot, which may indicate maintenance is necessary to avoid a fault.",
  "views.predictiveMaintenance.banner.Title": "This robot had an abnormal motor temperature in the past hour.",
  "views.productivityInsights.Avg": "Avg",
  "views.productivityInsights.EmptyAvailabilityKpiWarning": "No connectivity information available.",
  "views.productivityInsights.EmptyKpisWarning": "No information available to be displayed.",
  "views.productivityInsights.EmptyMotionKpiWarning": "No time in motion information available.",
  "views.productivityInsights.HistoricalFailed": "We're experiencing server errors retrieving your historical data; please try again later.  If the problem persists, please contact customer service at <a href='mailto:connect.support@kuka.com'>connect.support@kuka.com</a>",
  "views.productivityInsights.Max": "Max",
  "views.productivityInsights.Min": "Min",
  "views.productivityInsights.NoAvailableData": "No data was available for the selected chart type and time period.",
  "views.productivityInsights.OutOfRangeWarning": "Timeline has been advanced too far into the future.  Press <b>Current</b> in the Timeline's Navigation area.",
  "views.productivityInsights.RotateDeviceMessage": "Rotate device for more data graphs",
  "views.productivityInsights.ScalarFailed": "We're experiencing server errors retrieving your scalar data; please try again later.  If the problem persists, please contact customer service at <a href='mailto:connect.support@kuka.com'>connect.support@kuka.com</a>",
  "views.productivityInsights.TimeRange": "Time Range:",
  "views.productivityInsights.Title": "Condition Monitoring",
  "views.productivityInsights.secondaryKpis.AggregateKpis": "Aggregate KPIs",
  "views.productivityInsights.secondaryKpis.Autonomous": "Automatic Mode",
  "views.productivityInsights.secondaryKpis.Availability": "{connectivityValue} Connectivity",
  "views.productivityInsights.secondaryKpis.External": "External Control Mode",
  "views.productivityInsights.secondaryKpis.Information": "The percentage of time robot data was received by KUKA Connect.",
  "views.productivityInsights.secondaryKpis.Motion": "{timeInMotionValue} Time in Motion",
  "views.productivityInsights.secondaryKpis.MotionInformationPlural": "The percentage of time the robots were in motion.",
  "views.productivityInsights.secondaryKpis.MotionInformationSingular": "The percentage of time the robot was in motion.",
  "views.productivityInsights.secondaryKpis.OperatingMode": "Operating Mode Duration",
  "views.productivityInsights.secondaryKpis.RobotKpis": "Robot KPIs",
  "views.productivityInsights.secondaryKpis.Testing1": "Test Mode 1",
  "views.productivityInsights.secondaryKpis.Testing2": "Test Mode 2",
  "views.productivityInsights.secondaryKpis.UptimeCounter": "Uptime Counter",
  "views.productivityInsights.secondaryKpis.boardTester.CycleTime": "Cycle Time",
  "views.productivityInsights.secondaryKpis.boardTester.HandledBoards": "Handled Boards",
  "views.productivityInsights.secondaryKpis.boardTester.NumPaidUses": "Number of Paid Uses",
  "views.productivityInsights.secondaryKpis.boardTester.RetestedBoards": "Retested Boards",
  "views.productivityInsights.secondaryKpis.boardTester.Title": "Production",
  "views.productivityInsights.secondaryKpis.r2.fasten.Angle": "Maximum angle",
  "views.productivityInsights.secondaryKpis.r2.fasten.FastenerTotals": "Fastener totals",
  "views.productivityInsights.secondaryKpis.r2.fasten.MaxTorque": "Maximum reached torque [Nm]",
  "views.productivityInsights.secondaryKpis.r2.fasten.NokCaption": "Screws NOT OK",
  "views.productivityInsights.secondaryKpis.r2.fasten.OkCaption": "Screws OK",
  "views.productivityInsights.secondaryKpis.r2.fasten.ScrewTotals": "Screws",
  "views.productivityInsights.secondaryKpis.r2.fasten.Title": "Case Production",
  "views.productivityInsights.secondaryKpis.r2.fasten.Torque": "Maximum torque",
  "views.productivityInsights.secondaryKpis.uptime.Days": "Days",
  "views.productivityInsights.secondaryKpis.uptime.Hours": "Hours",
  "views.productivityInsights.secondaryKpis.uptime.Minutes": "Minutes",
  "views.productivityInsights.secondaryKpis.uptime.Seconds": "Seconds",
  "views.productivityInsights.secondaryKpis.uptimeCounterInformation": "The amount of time since the controller last encountered a restart or shut down.  Time is based on the $ROB_TIMER variable.",
  "views.productivityInsights.tile.AverageDuration": "[{weeks} Week Average]",
  "views.productivityInsights.tile.FaultsLabel": "Total Faults",
  "views.productivityInsights.tile.LegendHeader": "System Status",
  "views.productivityInsights.tile.RobotsLabel": "Robots",
  "views.productivityInsights.tile.RobotsWithFaultsLabel": "Robots with Faults",
  "views.reporting.DatePickerClear": "Clear",
  "views.reporting.DatePickerClose": "Done",
  "views.reporting.DatePickerToday": "Today",
  "views.reporting.Download24HrEventLog": "Today's Event Log",
  "views.reporting.Download30DayEventLog": "Month-to-date Event Log",
  "views.reporting.DownloadCsvLink": "Download CSV",
  "views.reporting.DownloadRobotList": "Download List of Robots",
  "views.reporting.EventLogReportEndDatePlaceholder": "End Date (now)",
  "views.reporting.EventLogReportHeader": "Event Log Report",
  "views.reporting.EventLogReportStartDatePlaceholder": "Start Date (30 days ago)",
  "views.reporting.GenerateReportButton": "Generate Report",
  "views.reporting.MaintenanceReportDownloadMessage": "Download Maintenance Report",
  "views.reporting.MaintenanceReportHeader": "Maintenance Report",
  "views.reporting.QuickReportsHeader": "Quick Reports",
  "views.reporting.ReportingTitle": "Reporting",
  "views.reporting.RobotListDownloadMessage": "Download Robot List",
  "views.reporting.RobotListReportHeader": "Robot List",
  "views.siteAssets.AlertsTableHeader": "Alerts",
  "views.siteAssets.AssetNameTableHeader": "Robot Name",
  "views.siteAssets.ConditionTableHeader": "Condition",
  "views.siteAssets.NoRobotsWarning": "There currently are no robots associated with this group.  Please contact your administrator to resolve this issue.",
  "views.siteAssets.SearchAssets": "Search Robots",
  "views.siteAssets.SerialNumberTableHeader": "Serial Number",
  "views.siteAssets.SubscriptionTypeTableHeader": "Subscription Type",
  "views.siteAssets.Title": "Robots",
  "views.siteAssets.TypeTableHeader": "Type",
  "views.siteAssets.UpgradeToPlus": "Upgrade to <b>PLUS</b>",
  "views.siteTile.ActiveRobots": "Active Robots",
  "views.siteTile.RobotGroups": "Robot Groups",
  "views.siteTile.RobotsWithFault": "Robots with Faults",
  "views.sites.NoSitesConfiguredWarning": "You currently have no robot groups associated with your account.  Please contact your administrator to resolve this issue.",
  "views.sites.SearchAssets": "Search Robots",
  "views.sites.SiteCurrentUptimeRateTableHeader": "7-Day Uptime",
  "views.sites.SiteNameTableHeader": "Group Name",
  "views.sites.SiteTotalAssetsTableHeader": "Total Robots",
  "views.sites.SiteTotalFaultsTableHeader": "Total Faults",
  "views.sites.Title": "Robots",
  "views.tables.ActionsTableHeader": "Actions",
  "views.tables.SearchPlaceholder": "Search",
  "views.unauthorized.ContactAdminMessage": "Please contact your local administrator if you believe that you have reached this message in error.",
  "views.unauthorized.UnauthorizedMessage": "You do not have permission to access this site.",
  "views.unauthorized.UnauthorizedTitle": "Unauthorized",
  "views.upgradeCoupon.UpgradeButton": "Upgrade Robot to PLUS",
  "views.upgradeCoupon.UpgradeNow": "Upgrade",
  "views.userSettings.buttons.Cancel": "Cancel",
  "views.userSettings.buttons.SaveAll": "Save All",
  "views.userSettings.contactInfo.notSet": "Not set",
  "views.userSettings.contactInfo.phone.expectedFormat": "Expected format:  + &lt;country code &gt; &lt; phone number &gt; ; Ex:  +15125554455",
  "views.userSettings.dashboardSection.Expanded": "Expanded?",
  "views.userSettings.dashboardSection.Header": "Dashboard Customization",
  "views.userSettings.dashboardSection.dragInstructions": "Drag to re-arrange card display order:",
  "views.userSettings.dashboardSection.dragLimitations": "A card may only be expanded if the card before it is expanded.",
  "views.userSettings.dashboardSection.welcomeBanner": "Show launch banner at startup",
  "views.userSettings.localeSection.Header": "Language Preferences",
  "views.userSettings.localeSection.Placeholder": "Select Display Language",
  "views.userSettings.settingsSection.AcountUser": "Account User",
  "views.userSettings.settingsSection.AlertType": "Alert Type",
  "views.userSettings.settingsSection.AssignedGroups": "Assigned Groups:",
  "views.userSettings.settingsSection.ContactInformation": "Contact Information",
  "views.userSettings.settingsSection.ExternalNotificationSettings": "External Notification Settings",
  "views.userSettings.settingsSection.FaultAlerts": "Fault Alerts",
  "views.userSettings.settingsSection.Header": "Settings",
  "views.userSettings.settingsSection.MaintenanceAlerts": "Maintenance Alerts",
  "views.userSettings.settingsSection.Phone": "Mobile:",
  "views.userSettings.settingsSection.RobotAlerts": "Robot Alerts",
  "views.userSettings.settingsSection.Roles": "Roles:",
  "views.userSettings.settingsSection.UserEmail": "User Email:",
  "views.userSettings.settingsSection.UserID": "User ID:",
  "views.userSettings.settingsSection.UserName": "User Name:",
  "views.userSettings.settingsSection.externalNotifications.AllFaults": "All Faults",
  "views.userSettings.settingsSection.externalNotifications.Complete": "Complete",
  "views.userSettings.settingsSection.externalNotifications.CriticalFaults": "Critical Faults",
  "views.userSettings.settingsSection.externalNotifications.FaultResolved": "Faults Resolved",
  "views.userSettings.settingsSection.externalNotifications.Info": "You will receive critical fault notifications only for KUKA robots with KUKA Connect Plus subscriptions",
  "views.userSettings.settingsSection.externalNotifications.LostConnection": "Lost Connection",
  "views.userSettings.settingsSection.externalNotifications.NewRobot": "New Robot Online",
  "views.userSettings.settingsSection.externalNotifications.OnSchedule": "On scheduled date",
  "views.userSettings.settingsSection.externalNotifications.PastDue": "Past Due",
  "views.userSettings.settingsSection.externalNotifications.Push": "Push notifications (mobile)",
  "views.userSettings.settingsSection.externalNotifications.RobotUnassigned": "Robot Unassigned",
  "views.userSettings.settingsSection.externalNotifications.Sms": "Text message",
  "views.userSettings.settingsSection.externalNotifications.Unconfirmed": "Unconfirmed",
  "views.userSettings.settingsSection.externalNotifications.WeekBefore": "1 week before due",
  "views.userSettings.settingsSection.receiveEmailNotifications": "Receive email notifications",
  "views.userSettings.settingsSection.receiveSmsNotifications": "Receive text notifications",
  "views.welcome.Admin": "Access Admin",
  "views.welcome.CheckRobots": "View Robots",
  "views.welcome.ConditionMonitoring": "Monitor Conditions",
  "views.welcome.DontShowAgain": "Don't show this launch banner again",
  "views.welcome.Greeting": "Hello",
  "views.welcome.Maintenance": "Maintenance",
  "views.welcome.Prompt": "What would you like to do?",
  "views.welcome.RunReports": "Run Reports",
  "views.welcome.UpgradeToPlus": "Upgrade to Plus",
  "views.welcome.ViewFaultLog": "View All Faults"
}